C-Praktikum(1)/C41/Bilder/ALL0010/F0010CH2.CSV

Record Length,2.500000e+03,,  -0.000000400000,  -3.28000,
Sample Interval,4.000000e-10,,  -0.000000399600,  -3.36000,
Trigger Point,1.000000000000e+03,,  -0.000000399200,  -3.28000,
,,,  -0.000000398800,  -3.28000,
,,,  -0.000000398400,  -3.28000,
,,,  -0.000000398000,  -3.28000,
Source,CH2,,  -0.000000397600,  -3.36000,
Vertical Units,V,,  -0.000000397200,  -3.36000,
Vertical Scale,2.000000e+00,,  -0.000000396800,  -3.28000,
Vertical Offset,-2.800000e+00,,  -0.000000396400,  -3.20000,
Horizontal Units,s,,  -0.000000396000,  -3.04000,
Horizontal Scale,1.000000e-07,,  -0.000000395600,  -3.04000,
Pt Fmt,Y,,  -0.000000395200,  -3.04000,
Yzero,0.000000e+00,,  -0.000000394800,  -3.12000,
Probe Atten,1.000000e+00,,  -0.000000394400,  -3.20000,
Model Number,TDS1001B,,  -0.000000394000,  -3.20000,
Serial Number,C040317,,  -0.000000393600,  -3.20000,
Firmware Version,FV:v22.01,,  -0.000000393200,  -3.20000,
,,,-00.000000392800,  -3.12000,
,,,-00.000000392400,  -3.12000,
,,,-00.000000392000,  -3.12000,
,,,-00.000000391600,  -3.20000,
,,,-00.000000391200,  -3.28000,
,,,-00.000000390800,  -3.36000,
,,,-00.000000390400,  -3.36000,
,,,-00.000000390000,  -3.28000,
,,,-00.000000389600,  -3.28000,
,,,-00.000000389200,  -3.28000,
,,,-00.000000388800,  -3.20000,
,,,-00.000000388400,  -3.20000,
,,,-00.000000388000,  -3.12000,
,,,-00.000000387600,  -3.20000,
,,,-00.000000387200,  -3.20000,
,,,-00.000000386800,  -3.20000,
,,,-00.000000386400,  -3.20000,
,,,-00.000000386000,  -3.12000,
,,,-00.000000385600,  -3.20000,
,,,-00.000000385200,  -3.20000,
,,,-00.000000384800,  -3.20000,
,,,-00.000000384400,  -3.20000,
,,,-00.000000384000,  -3.12000,
,,,-00.000000383600,  -3.20000,
,,,-00.000000383200,  -3.20000,
,,,-00.000000382800,  -3.28000,
,,,-00.000000382400,  -3.28000,
,,,-00.000000382000,  -3.28000,
,,,-00.000000381600,  -3.36000,
,,,-00.000000381200,  -3.28000,
,,,-00.000000380800,  -3.28000,
,,,-00.000000380400,  -3.28000,
,,,-00.000000380000,  -3.20000,
,,,-00.000000379600,  -3.28000,
,,,-00.000000379200,  -3.28000,
,,,-00.000000378800,  -3.28000,
,,,-00.000000378400,  -3.20000,
,,,-00.000000378000,  -3.12000,
,,,-00.000000377600,  -3.12000,
,,,-00.000000377200,  -3.04000,
,,,-00.000000376800,  -3.04000,
,,,-00.000000376400,  -3.12000,
,,,-00.000000376000,  -3.12000,
,,,-00.000000375600,  -3.20000,
,,,-00.000000375200,  -3.20000,
,,,-00.000000374800,  -3.20000,
,,,-00.000000374400,  -3.12000,
,,,-00.000000374000,  -3.04000,
,,,-00.000000373600,  -3.12000,
,,,-00.000000373200,  -3.12000,
,,,-00.000000372800,  -3.12000,
,,,-00.000000372400,  -3.12000,
,,,-00.000000372000,  -3.12000,
,,,-00.000000371600,  -3.12000,
,,,-00.000000371200,  -3.12000,
,,,-00.000000370800,  -3.12000,
,,,-00.000000370400,  -3.12000,
,,,-00.000000370000,  -3.12000,
,,,-00.000000369600,  -3.12000,
,,,-00.000000369200,  -3.12000,
,,,-00.000000368800,  -3.12000,
,,,-00.000000368400,  -3.12000,
,,,-00.000000368000,  -3.12000,
,,,-00.000000367600,  -3.12000,
,,,-00.000000367200,  -3.12000,
,,,-00.000000366800,  -3.20000,
,,,-00.000000366400,  -3.20000,
,,,-00.000000366000,  -3.20000,
,,,-00.000000365600,  -3.20000,
,,,-00.000000365200,  -3.20000,
,,,-00.000000364800,  -3.20000,
,,,-00.000000364400,  -3.20000,
,,,-00.000000364000,  -3.20000,
,,,-00.000000363600,  -3.20000,
,,,-00.000000363200,  -3.20000,
,,,-00.000000362800,  -3.20000,
,,,-00.000000362400,  -3.20000,
,,,-00.000000362000,  -3.20000,
,,,-00.000000361600,  -3.20000,
,,,-00.000000361200,  -3.20000,
,,,-00.000000360800,  -3.12000,
,,,-00.000000360400,  -3.12000,
,,,-00.000000360000,  -3.12000,
,,,-00.000000359600,  -3.12000,
,,,-00.000000359200,  -3.12000,
,,,-00.000000358800,  -3.20000,
,,,-00.000000358400,  -3.20000,
,,,-00.000000358000,  -3.20000,
,,,-00.000000357600,  -3.20000,
,,,-00.000000357200,  -3.20000,
,,,-00.000000356800,  -3.20000,
,,,-00.000000356400,  -3.20000,
,,,-00.000000356000,  -3.20000,
,,,-00.000000355600,  -3.20000,
,,,-00.000000355200,  -3.20000,
,,,-00.000000354800,  -3.20000,
,,,-00.000000354400,  -3.20000,
,,,-00.000000354000,  -3.20000,
,,,-00.000000353600,  -3.20000,
,,,-00.000000353200,  -3.20000,
,,,-00.000000352800,  -3.28000,
,,,-00.000000352400,  -3.28000,
,,,-00.000000352000,  -3.28000,
,,,-00.000000351600,  -3.28000,
,,,-00.000000351200,  -3.28000,
,,,-00.000000350800,  -3.20000,
,,,-00.000000350400,  -3.28000,
,,,-00.000000350000,  -3.28000,
,,,-00.000000349600,  -3.36000,
,,,-00.000000349200,  -3.36000,
,,,-00.000000348800,  -3.36000,
,,,-00.000000348400,  -3.28000,
,,,-00.000000348000,  -3.20000,
,,,-00.000000347600,  -3.20000,
,,,-00.000000347200,  -3.20000,
,,,-00.000000346800,  -3.20000,
,,,-00.000000346400,  -3.20000,
,,,-00.000000346000,  -3.12000,
,,,-00.000000345600,  -3.12000,
,,,-00.000000345200,  -3.12000,
,,,-00.000000344800,  -3.12000,
,,,-00.000000344400,  -3.12000,
,,,-00.000000344000,  -3.04000,
,,,-00.000000343600,  -3.12000,
,,,-00.000000343200,  -3.20000,
,,,-00.000000342800,  -3.20000,
,,,-00.000000342400,  -3.20000,
,,,-00.000000342000,  -3.20000,
,,,-00.000000341600,  -3.20000,
,,,-00.000000341200,  -3.20000,
,,,-00.000000340800,  -3.20000,
,,,-00.000000340400,  -3.20000,
,,,-00.000000340000,  -3.20000,
,,,-00.000000339600,  -3.20000,
,,,-00.000000339200,  -3.20000,
,,,-00.000000338800,  -3.20000,
,,,-00.000000338400,  -3.20000,
,,,-00.000000338000,  -3.20000,
,,,-00.000000337600,  -3.20000,
,,,-00.000000337200,  -3.20000,
,,,-00.000000336800,  -3.12000,
,,,-00.000000336400,  -3.12000,
,,,-00.000000336000,  -3.12000,
,,,-00.000000335600,  -3.20000,
,,,-00.000000335200,  -3.20000,
,,,-00.000000334800,  -3.20000,
,,,-00.000000334400,  -3.20000,
,,,-00.000000334000,  -3.20000,
,,,-00.000000333600,  -3.28000,
,,,-00.000000333200,  -3.28000,
,,,-00.000000332800,  -3.28000,
,,,-00.000000332400,  -3.28000,
,,,-00.000000332000,  -3.28000,
,,,-00.000000331600,  -3.28000,
,,,-00.000000331200,  -3.28000,
,,,-00.000000330800,  -3.28000,
,,,-00.000000330400,  -3.28000,
,,,-00.000000330000,  -3.20000,
,,,-00.000000329600,  -3.20000,
,,,-00.000000329200,  -3.20000,
,,,-00.000000328800,  -3.12000,
,,,-00.000000328400,  -3.12000,
,,,-00.000000328000,  -3.12000,
,,,-00.000000327600,  -3.12000,
,,,-00.000000327200,  -3.12000,
,,,-00.000000326800,  -3.20000,
,,,-00.000000326400,  -3.28000,
,,,-00.000000326000,  -3.28000,
,,,-00.000000325600,  -3.28000,
,,,-00.000000325200,  -3.28000,
,,,-00.000000324800,  -3.20000,
,,,-00.000000324400,  -3.20000,
,,,-00.000000324000,  -3.12000,
,,,-00.000000323600,  -3.12000,
,,,-00.000000323200,  -3.04000,
,,,-00.000000322800,  -3.12000,
,,,-00.000000322400,  -3.12000,
,,,-00.000000322000,  -3.12000,
,,,-00.000000321600,  -3.12000,
,,,-00.000000321200,  -3.12000,
,,,-00.000000320800,  -3.20000,
,,,-00.000000320400,  -3.20000,
,,,-00.000000320000,  -3.20000,
,,,-00.000000319600,  -3.28000,
,,,-00.000000319200,  -3.20000,
,,,-00.000000318800,  -3.20000,
,,,-00.000000318400,  -3.20000,
,,,-00.000000318000,  -3.12000,
,,,-00.000000317600,  -3.20000,
,,,-00.000000317200,  -3.20000,
,,,-00.000000316800,  -3.28000,
,,,-00.000000316400,  -3.28000,
,,,-00.000000316000,  -3.28000,
,,,-00.000000315600,  -3.28000,
,,,-00.000000315200,  -3.28000,
,,,-00.000000314800,  -3.28000,
,,,-00.000000314400,  -3.28000,
,,,-00.000000314000,  -3.28000,
,,,-00.000000313600,  -3.28000,
,,,-00.000000313200,  -3.28000,
,,,-00.000000312800,  -3.20000,
,,,-00.000000312400,  -3.20000,
,,,-00.000000312000,  -3.12000,
,,,-00.000000311600,  -3.12000,
,,,-00.000000311200,  -3.12000,
,,,-00.000000310800,  -3.12000,
,,,-00.000000310400,  -3.12000,
,,,-00.000000310000,  -3.04000,
,,,-00.000000309600,  -3.04000,
,,,-00.000000309200,  -3.04000,
,,,-00.000000308800,  -3.12000,
,,,-00.000000308400,  -3.12000,
,,,-00.000000308000,  -3.12000,
,,,-00.000000307600,  -3.20000,
,,,-00.000000307200,  -3.20000,
,,,-00.000000306800,  -3.20000,
,,,-00.000000306400,  -3.20000,
,,,-00.000000306000,  -3.20000,
,,,-00.000000305600,  -3.20000,
,,,-00.000000305200,  -3.20000,
,,,-00.000000304800,  -3.20000,
,,,-00.000000304400,  -3.20000,
,,,-00.000000304000,  -3.20000,
,,,-00.000000303600,  -3.20000,
,,,-00.000000303200,  -3.20000,
,,,-00.000000302800,  -3.20000,
,,,-00.000000302400,  -3.20000,
,,,-00.000000302000,  -3.12000,
,,,-00.000000301600,  -3.20000,
,,,-00.000000301200,  -3.20000,
,,,-00.000000300800,  -3.28000,
,,,-00.000000300400,  -3.28000,
,,,-00.000000300000,  -3.28000,
,,,-00.000000299600,  -3.28000,
,,,-00.000000299200,  -3.28000,
,,,-00.000000298800,  -3.28000,
,,,-00.000000298400,  -3.28000,
,,,-00.000000298000,  -3.28000,
,,,-00.000000297600,  -3.28000,
,,,-00.000000297200,  -3.28000,
,,,-00.000000296800,  -3.20000,
,,,-00.000000296400,  -3.20000,
,,,-00.000000296000,  -3.12000,
,,,-00.000000295600,  -3.20000,
,,,-00.000000295200,  -3.20000,
,,,-00.000000294800,  -3.20000,
,,,-00.000000294400,  -3.20000,
,,,-00.000000294000,  -3.12000,
,,,-00.000000293600,  -3.12000,
,,,-00.000000293200,  -3.12000,
,,,-00.000000292800,  -3.20000,
,,,-00.000000292400,  -3.20000,
,,,-00.000000292000,  -3.20000,
,,,-00.000000291600,  -3.28000,
,,,-00.000000291200,  -3.20000,
,,,-00.000000290800,  -3.20000,
,,,-00.000000290400,  -3.20000,
,,,-00.000000290000,  -3.12000,
,,,-00.000000289600,  -3.12000,
,,,-00.000000289200,  -3.04000,
,,,-00.000000288800,  -3.12000,
,,,-00.000000288400,  -3.20000,
,,,-00.000000288000,  -3.20000,
,,,-00.000000287600,  -3.20000,
,,,-00.000000287200,  -3.20000,
,,,-00.000000286800,  -3.12000,
,,,-00.000000286400,  -3.12000,
,,,-00.000000286000,  -3.12000,
,,,-00.000000285600,  -3.20000,
,,,-00.000000285200,  -3.20000,
,,,-00.000000284800,  -3.28000,
,,,-00.000000284400,  -3.36000,
,,,-00.000000284000,  -3.36000,
,,,-00.000000283600,  -3.44000,
,,,-00.000000283200,  -3.44000,
,,,-00.000000282800,  -3.36000,
,,,-00.000000282400,  -3.28000,
,,,-00.000000282000,  -3.20000,
,,,-00.000000281600,  -3.20000,
,,,-00.000000281200,  -3.20000,
,,,-00.000000280800,  -3.20000,
,,,-00.000000280400,  -3.28000,
,,,-00.000000280000,  -3.20000,
,,,-00.000000279600,  -3.20000,
,,,-00.000000279200,  -3.12000,
,,,-00.000000278800,  -3.04000,
,,,-00.000000278400,  -3.12000,
,,,-00.000000278000,  -3.12000,
,,,-00.000000277600,  -3.20000,
,,,-00.000000277200,  -3.20000,
,,,-00.000000276800,  -3.20000,
,,,-00.000000276400,  -3.20000,
,,,-00.000000276000,  -3.12000,
,,,-00.000000275600,  -3.12000,
,,,-00.000000275200,  -3.12000,
,,,-00.000000274800,  -3.12000,
,,,-00.000000274400,  -3.12000,
,,,-00.000000274000,  -3.12000,
,,,-00.000000273600,  -3.12000,
,,,-00.000000273200,  -3.12000,
,,,-00.000000272800,  -3.20000,
,,,-00.000000272400,  -3.20000,
,,,-00.000000272000,  -3.20000,
,,,-00.000000271600,  -3.20000,
,,,-00.000000271200,  -3.20000,
,,,-00.000000270800,  -3.12000,
,,,-00.000000270400,  -3.12000,
,,,-00.000000270000,  -3.12000,
,,,-00.000000269600,  -3.12000,
,,,-00.000000269200,  -3.12000,
,,,-00.000000268800,  -3.20000,
,,,-00.000000268400,  -3.20000,
,,,-00.000000268000,  -3.20000,
,,,-00.000000267600,  -3.20000,
,,,-00.000000267200,  -3.20000,
,,,-00.000000266800,  -3.12000,
,,,-00.000000266400,  -3.20000,
,,,-00.000000266000,  -3.20000,
,,,-00.000000265600,  -3.28000,
,,,-00.000000265200,  -3.28000,
,,,-00.000000264800,  -3.28000,
,,,-00.000000264400,  -3.20000,
,,,-00.000000264000,  -3.12000,
,,,-00.000000263600,  -3.12000,
,,,-00.000000263200,  -3.04000,
,,,-00.000000262800,  -2.96000,
,,,-00.000000262400,  -2.88000,
,,,-00.000000262000,  -2.72000,
,,,-00.000000261600,  -2.64000,
,,,-00.000000261200,  -2.48000,
,,,-00.000000260800,  -2.24000,
,,,-00.000000260400,  -2.00000,
,,,-00.000000260000,  -1.68000,
,,,-00.000000259600,  -1.44000,
,,,-00.000000259200,  -1.20000,
,,,-00.000000258800,  -0.96000,
,,,-00.000000258400,  -0.64000,
,,,-00.000000258000,  -0.32000,
,,,-00.000000257600,  -0.08000,
,,,-00.000000257200,   0.24000,
,,,-00.000000256800,   0.56000,
,,,-00.000000256400,   0.88000,
,,,-00.000000256000,   1.28000,
,,,-00.000000255600,   1.60000,
,,,-00.000000255200,   1.84000,
,,,-00.000000254800,   2.08000,
,,,-00.000000254400,   2.32000,
,,,-00.000000254000,   2.48000,
,,,-00.000000253600,   2.56000,
,,,-00.000000253200,   2.64000,
,,,-00.000000252800,   2.72000,
,,,-00.000000252400,   2.88000,
,,,-00.000000252000,   3.04000,
,,,-00.000000251600,   3.04000,
,,,-00.000000251200,   3.12000,
,,,-00.000000250800,   3.12000,
,,,-00.000000250400,   3.12000,
,,,-00.000000250000,   3.12000,
,,,-00.000000249600,   3.12000,
,,,-00.000000249200,   3.12000,
,,,-00.000000248800,   3.20000,
,,,-00.000000248400,   3.20000,
,,,-00.000000248000,   3.20000,
,,,-00.000000247600,   3.12000,
,,,-00.000000247200,   3.12000,
,,,-00.000000246800,   3.12000,
,,,-00.000000246400,   3.12000,
,,,-00.000000246000,   3.12000,
,,,-00.000000245600,   3.12000,
,,,-00.000000245200,   3.12000,
,,,-00.000000244800,   3.12000,
,,,-00.000000244400,   3.04000,
,,,-00.000000244000,   3.04000,
,,,-00.000000243600,   2.96000,
,,,-00.000000243200,   2.80000,
,,,-00.000000242800,   2.72000,
,,,-00.000000242400,   2.56000,
,,,-00.000000242000,   2.40000,
,,,-00.000000241600,   2.16000,
,,,-00.000000241200,   1.84000,
,,,-00.000000240800,   1.60000,
,,,-00.000000240400,   1.28000,
,,,-00.000000240000,   1.04000,
,,,-00.000000239600,   0.80000,
,,,-00.000000239200,   0.48000,
,,,-00.000000238800,   0.24000,
,,,-00.000000238400,  -0.08000,
,,,-00.000000238000,  -0.40000,
,,,-00.000000237600,  -0.72000,
,,,-00.000000237200,  -1.04000,
,,,-00.000000236800,  -1.36000,
,,,-00.000000236400,  -1.60000,
,,,-00.000000236000,  -1.84000,
,,,-00.000000235600,  -2.08000,
,,,-00.000000235200,  -2.32000,
,,,-00.000000234800,  -2.56000,
,,,-00.000000234400,  -2.72000,
,,,-00.000000234000,  -2.88000,
,,,-00.000000233600,  -3.04000,
,,,-00.000000233200,  -3.12000,
,,,-00.000000232800,  -3.20000,
,,,-00.000000232400,  -3.28000,
,,,-00.000000232000,  -3.28000,
,,,-00.000000231600,  -3.28000,
,,,-00.000000231200,  -3.28000,
,,,-00.000000230800,  -3.20000,
,,,-00.000000230400,  -3.12000,
,,,-00.000000230000,  -3.04000,
,,,-00.000000229600,  -3.04000,
,,,-00.000000229200,  -3.04000,
,,,-00.000000228800,  -3.04000,
,,,-00.000000228400,  -3.04000,
,,,-00.000000228000,  -3.04000,
,,,-00.000000227600,  -3.04000,
,,,-00.000000227200,  -3.04000,
,,,-00.000000226800,  -3.04000,
,,,-00.000000226400,  -3.04000,
,,,-00.000000226000,  -2.96000,
,,,-00.000000225600,  -3.04000,
,,,-00.000000225200,  -3.04000,
,,,-00.000000224800,  -3.12000,
,,,-00.000000224400,  -3.12000,
,,,-00.000000224000,  -3.12000,
,,,-00.000000223600,  -3.12000,
,,,-00.000000223200,  -3.12000,
,,,-00.000000222800,  -3.12000,
,,,-00.000000222400,  -3.12000,
,,,-00.000000222000,  -3.12000,
,,,-00.000000221600,  -3.12000,
,,,-00.000000221200,  -3.12000,
,,,-00.000000220800,  -3.12000,
,,,-00.000000220400,  -3.12000,
,,,-00.000000220000,  -3.12000,
,,,-00.000000219600,  -3.20000,
,,,-00.000000219200,  -3.12000,
,,,-00.000000218800,  -3.12000,
,,,-00.000000218400,  -3.12000,
,,,-00.000000218000,  -3.04000,
,,,-00.000000217600,  -3.12000,
,,,-00.000000217200,  -3.20000,
,,,-00.000000216800,  -3.20000,
,,,-00.000000216400,  -3.20000,
,,,-00.000000216000,  -3.20000,
,,,-00.000000215600,  -3.28000,
,,,-00.000000215200,  -3.28000,
,,,-00.000000214800,  -3.28000,
,,,-00.000000214400,  -3.20000,
,,,-00.000000214000,  -3.12000,
,,,-00.000000213600,  -3.12000,
,,,-00.000000213200,  -3.04000,
,,,-00.000000212800,  -3.12000,
,,,-00.000000212400,  -3.12000,
,,,-00.000000212000,  -3.12000,
,,,-00.000000211600,  -3.12000,
,,,-00.000000211200,  -3.12000,
,,,-00.000000210800,  -3.12000,
,,,-00.000000210400,  -3.12000,
,,,-00.000000210000,  -3.12000,
,,,-00.000000209600,  -3.12000,
,,,-00.000000209200,  -3.12000,
,,,-00.000000208800,  -3.20000,
,,,-00.000000208400,  -3.20000,
,,,-00.000000208000,  -3.20000,
,,,-00.000000207600,  -3.28000,
,,,-00.000000207200,  -3.20000,
,,,-00.000000206800,  -3.20000,
,,,-00.000000206400,  -3.20000,
,,,-00.000000206000,  -3.12000,
,,,-00.000000205600,  -3.12000,
,,,-00.000000205200,  -3.12000,
,,,-00.000000204800,  -3.20000,
,,,-00.000000204400,  -3.20000,
,,,-00.000000204000,  -3.20000,
,,,-00.000000203600,  -3.20000,
,,,-00.000000203200,  -3.20000,
,,,-00.000000202800,  -3.20000,
,,,-00.000000202400,  -3.20000,
,,,-00.000000202000,  -3.20000,
,,,-00.000000201600,  -3.20000,
,,,-00.000000201200,  -3.20000,
,,,-00.000000200800,  -3.20000,
,,,-00.000000200400,  -3.20000,
,,,-00.000000200000,  -3.20000,
,,,-00.000000199600,  -3.28000,
,,,-00.000000199200,  -3.28000,
,,,-00.000000198800,  -3.28000,
,,,-00.000000198400,  -3.20000,
,,,-00.000000198000,  -3.12000,
,,,-00.000000197600,  -3.12000,
,,,-00.000000197200,  -3.12000,
,,,-00.000000196800,  -3.20000,
,,,-00.000000196400,  -3.20000,
,,,-00.000000196000,  -3.20000,
,,,-00.000000195600,  -3.20000,
,,,-00.000000195200,  -3.20000,
,,,-00.000000194800,  -3.12000,
,,,-00.000000194400,  -3.12000,
,,,-00.000000194000,  -3.12000,
,,,-00.000000193600,  -3.20000,
,,,-00.000000193200,  -3.28000,
,,,-00.000000192800,  -3.28000,
,,,-00.000000192400,  -3.28000,
,,,-00.000000192000,  -3.20000,
,,,-00.000000191600,  -3.20000,
,,,-00.000000191200,  -3.20000,
,,,-00.000000190800,  -3.12000,
,,,-00.000000190400,  -3.12000,
,,,-00.000000190000,  -3.12000,
,,,-00.000000189600,  -3.12000,
,,,-00.000000189200,  -3.12000,
,,,-00.000000188800,  -3.12000,
,,,-00.000000188400,  -3.12000,
,,,-00.000000188000,  -3.04000,
,,,-00.000000187600,  -3.04000,
,,,-00.000000187200,  -3.04000,
,,,-00.000000186800,  -3.04000,
,,,-00.000000186400,  -3.12000,
,,,-00.000000186000,  -3.12000,
,,,-00.000000185600,  -3.20000,
,,,-00.000000185200,  -3.28000,
,,,-00.000000184800,  -3.36000,
,,,-00.000000184400,  -3.36000,
,,,-00.000000184000,  -3.28000,
,,,-00.000000183600,  -3.28000,
,,,-00.000000183200,  -3.28000,
,,,-00.000000182800,  -3.28000,
,,,-00.000000182400,  -3.28000,
,,,-00.000000182000,  -3.28000,
,,,-00.000000181600,  -3.28000,
,,,-00.000000181200,  -3.28000,
,,,-00.000000180800,  -3.20000,
,,,-00.000000180400,  -3.12000,
,,,-00.000000180000,  -3.04000,
,,,-00.000000179600,  -3.12000,
,,,-00.000000179200,  -3.12000,
,,,-00.000000178800,  -3.20000,
,,,-00.000000178400,  -3.20000,
,,,-00.000000178000,  -3.12000,
,,,-00.000000177600,  -3.04000,
,,,-00.000000177200,  -3.04000,
,,,-00.000000176800,  -3.04000,
,,,-00.000000176400,  -3.12000,
,,,-00.000000176000,  -3.12000,
,,,-00.000000175600,  -3.20000,
,,,-00.000000175200,  -3.20000,
,,,-00.000000174800,  -3.12000,
,,,-00.000000174400,  -3.12000,
,,,-00.000000174000,  -3.04000,
,,,-00.000000173600,  -3.12000,
,,,-00.000000173200,  -3.12000,
,,,-00.000000172800,  -3.20000,
,,,-00.000000172400,  -3.20000,
,,,-00.000000172000,  -3.20000,
,,,-00.000000171600,  -3.28000,
,,,-00.000000171200,  -3.20000,
,,,-00.000000170800,  -3.20000,
,,,-00.000000170400,  -3.20000,
,,,-00.000000170000,  -3.12000,
,,,-00.000000169600,  -3.12000,
,,,-00.000000169200,  -3.12000,
,,,-00.000000168800,  -3.12000,
,,,-00.000000168400,  -3.12000,
,,,-00.000000168000,  -3.12000,
,,,-00.000000167600,  -3.20000,
,,,-00.000000167200,  -3.20000,
,,,-00.000000166800,  -3.28000,
,,,-00.000000166400,  -3.28000,
,,,-00.000000166000,  -3.28000,
,,,-00.000000165600,  -3.28000,
,,,-00.000000165200,  -3.28000,
,,,-00.000000164800,  -3.20000,
,,,-00.000000164400,  -3.20000,
,,,-00.000000164000,  -3.12000,
,,,-00.000000163600,  -3.12000,
,,,-00.000000163200,  -3.12000,
,,,-00.000000162800,  -3.12000,
,,,-00.000000162400,  -3.12000,
,,,-00.000000162000,  -3.12000,
,,,-00.000000161600,  -3.12000,
,,,-00.000000161200,  -3.12000,
,,,-00.000000160800,  -3.20000,
,,,-00.000000160400,  -3.20000,
,,,-00.000000160000,  -3.20000,
,,,-00.000000159600,  -3.20000,
,,,-00.000000159200,  -3.20000,
,,,-00.000000158800,  -3.12000,
,,,-00.000000158400,  -3.12000,
,,,-00.000000158000,  -3.12000,
,,,-00.000000157600,  -3.12000,
,,,-00.000000157200,  -3.12000,
,,,-00.000000156800,  -3.12000,
,,,-00.000000156400,  -3.12000,
,,,-00.000000156000,  -3.12000,
,,,-00.000000155600,  -3.12000,
,,,-00.000000155200,  -3.12000,
,,,-00.000000154800,  -3.12000,
