C-Praktikum(1)/C42/Versuch C41 Daniel Michel Sander Scheel/Oszilloskop Datein/ALL0013/F0013CH2.CSV

Record Length,2.500000e+03,,   0.013380000000,  -3.40000,
Sample Interval,1.000000e-06,,   0.013381000000,  -3.60000,
Trigger Point,-1.338000000000e+04,,   0.013382000000,  -3.40000,
,,,   0.013383000000,  -3.40000,
,,,   0.013384000000,  -3.40000,
,,,   0.013385000000,  -3.40000,
Source,CH2,,   0.013386000000,  -3.40000,
Vertical Units,V,,   0.013387000000,  -3.40000,
Vertical Scale,5.000000e+00,,   0.013388000000,  -3.40000,
Vertical Offset,-1.000000e+01,,   0.013389000000,  -3.40000,
Horizontal Units,s,,   0.013390000000,  -3.40000,
Horizontal Scale,2.500000e-04,,   0.013391000000,  -3.40000,
Pt Fmt,Y,,   0.013392000000,  -3.40000,
Yzero,0.000000e+00,,   0.013393000000,  -3.20000,
Probe Atten,1.000000e+00,,   0.013394000000,  -3.40000,
Model Number,TDS1001B,,   0.013395000000,  -3.40000,
Serial Number,C040309,,   0.013396000000,  -3.40000,
Firmware Version,FV:v22.01,,   0.013397000000,  -3.20000,
,,,0.013398000000,  -3.40000,
,,,0.013399000000,  -3.20000,
,,,0.013400000000,  -3.20000,
,,,0.013401000000,  -3.20000,
,,,0.013402000000,  -3.20000,
,,,0.013403000000,  -3.20000,
,,,0.013404000000,  -3.20000,
,,,0.013405000000,  -3.20000,
,,,0.013406000000,  -3.20000,
,,,0.013407000000,  -3.20000,
,,,0.013408000000,  -3.20000,
,,,0.013409000000,  -3.20000,
,,,0.013410000000,  -3.20000,
,,,0.013411000000,  -3.20000,
,,,0.013412000000,  -3.20000,
,,,0.013413000000,  -3.20000,
,,,0.013414000000,  -3.20000,
,,,0.013415000000,  -3.20000,
,,,0.013416000000,  -3.00000,
,,,0.013417000000,  -3.20000,
,,,0.013418000000,  -3.20000,
,,,0.013419000000,  -3.00000,
,,,0.013420000000,  -3.00000,
,,,0.013421000000,  -3.00000,
,,,0.013422000000,  -3.00000,
,,,0.013423000000,  -3.00000,
,,,0.013424000000,  -3.00000,
,,,0.013425000000,  -3.20000,
,,,0.013426000000,  -3.00000,
,,,0.013427000000,  -3.00000,
,,,0.013428000000,  -3.00000,
,,,0.013429000000,  -3.00000,
,,,0.013430000000,  -3.00000,
,,,0.013431000000,  -3.00000,
,,,0.013432000000,  -3.00000,
,,,0.013433000000,  -3.00000,
,,,0.013434000000,  -3.00000,
,,,0.013435000000,  -3.00000,
,,,0.013436000000,  -3.00000,
,,,0.013437000000,  -3.00000,
,,,0.013438000000,  -3.00000,
,,,0.013439000000,  -3.00000,
,,,0.013440000000,  -3.00000,
,,,0.013441000000,  -3.00000,
,,,0.013442000000,  -2.80000,
,,,0.013443000000,  -3.00000,
,,,0.013444000000,  -2.80000,
,,,0.013445000000,  -2.80000,
,,,0.013446000000,  -2.80000,
,,,0.013447000000,  -2.80000,
,,,0.013448000000,  -2.80000,
,,,0.013449000000,  -2.80000,
,,,0.013450000000,  -2.80000,
,,,0.013451000000,  -2.80000,
,,,0.013452000000,  -2.80000,
,,,0.013453000000,  -2.80000,
,,,0.013454000000,  -2.80000,
,,,0.013455000000,  -2.80000,
,,,0.013456000000,  -2.80000,
,,,0.013457000000,  -2.80000,
,,,0.013458000000,  -2.80000,
,,,0.013459000000,  -2.80000,
,,,0.013460000000,  -2.80000,
,,,0.013461000000,  -2.80000,
,,,0.013462000000,  -2.80000,
,,,0.013463000000,  -2.60000,
,,,0.013464000000,  -2.60000,
,,,0.013465000000,  -2.80000,
,,,0.013466000000,  -2.80000,
,,,0.013467000000,  -2.80000,
,,,0.013468000000,  -2.80000,
,,,0.013469000000,  -2.60000,
,,,0.013470000000,  -2.60000,
,,,0.013471000000,  -2.80000,
,,,0.013472000000,  -2.80000,
,,,0.013473000000,  -2.60000,
,,,0.013474000000,  -2.60000,
,,,0.013475000000,  -2.60000,
,,,0.013476000000,  -2.60000,
,,,0.013477000000,  -2.60000,
,,,0.013478000000,  -2.60000,
,,,0.013479000000,  -2.60000,
,,,0.013480000000,  -2.60000,
,,,0.013481000000,  -2.60000,
,,,0.013482000000,  -2.60000,
,,,0.013483000000,  -2.60000,
,,,0.013484000000,  -2.60000,
,,,0.013485000000,  -2.60000,
,,,0.013486000000,  -2.60000,
,,,0.013487000000,  -2.60000,
,,,0.013488000000,  -2.60000,
,,,0.013489000000,  -2.40000,
,,,0.013490000000,  -2.60000,
,,,0.013491000000,  -2.60000,
,,,0.013492000000,  -2.60000,
,,,0.013493000000,  -2.40000,
,,,0.013494000000,  -2.60000,
,,,0.013495000000,  -2.60000,
,,,0.013496000000,  -2.40000,
,,,0.013497000000,  -2.40000,
,,,0.013498000000,  -2.40000,
,,,0.013499000000,  -2.40000,
,,,0.013500000000,  -2.40000,
,,,0.013501000000,  -2.40000,
,,,0.013502000000,  -2.60000,
,,,0.013503000000,  -2.40000,
,,,0.013504000000,  -2.40000,
,,,0.013505000000,  -2.60000,
,,,0.013506000000,  -2.40000,
,,,0.013507000000,  -2.40000,
,,,0.013508000000,  -2.40000,
,,,0.013509000000,  -2.40000,
,,,0.013510000000,  -2.40000,
,,,0.013511000000,  -2.40000,
,,,0.013512000000,  -2.40000,
,,,0.013513000000,  -2.40000,
,,,0.013514000000,  -2.40000,
,,,0.013515000000,  -2.40000,
,,,0.013516000000,  -2.40000,
,,,0.013517000000,  -2.40000,
,,,0.013518000000,  -2.40000,
,,,0.013519000000,  -2.40000,
,,,0.013520000000,  -2.40000,
,,,0.013521000000,  -2.40000,
,,,0.013522000000,  -2.20000,
,,,0.013523000000,  -2.20000,
,,,0.013524000000,  -2.40000,
,,,0.013525000000,  -2.20000,
,,,0.013526000000,  -2.40000,
,,,0.013527000000,  -2.20000,
,,,0.013528000000,  -2.20000,
,,,0.013529000000,  -2.20000,
,,,0.013530000000,  -2.20000,
,,,0.013531000000,  -2.40000,
,,,0.013532000000,  -2.20000,
,,,0.013533000000,  -2.20000,
,,,0.013534000000,  -2.20000,
,,,0.013535000000,  -2.20000,
,,,0.013536000000,  -2.20000,
,,,0.013537000000,  -2.20000,
,,,0.013538000000,  -2.20000,
,,,0.013539000000,  -2.20000,
,,,0.013540000000,  -2.20000,
,,,0.013541000000,  -2.20000,
,,,0.013542000000,  -2.20000,
,,,0.013543000000,  -2.20000,
,,,0.013544000000,  -2.20000,
,,,0.013545000000,  -2.00000,
,,,0.013546000000,  -2.20000,
,,,0.013547000000,  -2.20000,
,,,0.013548000000,  -2.20000,
,,,0.013549000000,  -2.20000,
,,,0.013550000000,  -2.20000,
,,,0.013551000000,  -2.20000,
,,,0.013552000000,  -2.20000,
,,,0.013553000000,  -2.20000,
,,,0.013554000000,  -2.20000,
,,,0.013555000000,  -2.00000,
,,,0.013556000000,  -2.20000,
,,,0.013557000000,  -2.00000,
,,,0.013558000000,  -2.00000,
,,,0.013559000000,  -2.00000,
,,,0.013560000000,  -2.20000,
,,,0.013561000000,  -2.00000,
,,,0.013562000000,  -2.00000,
,,,0.013563000000,  -2.00000,
,,,0.013564000000,  -2.00000,
,,,0.013565000000,  -2.00000,
,,,0.013566000000,  -2.20000,
,,,0.013567000000,  -2.00000,
,,,0.013568000000,  -2.00000,
,,,0.013569000000,  -2.00000,
,,,0.013570000000,  -2.00000,
,,,0.013571000000,  -2.00000,
,,,0.013572000000,  -2.00000,
,,,0.013573000000,  -2.00000,
,,,0.013574000000,  -2.00000,
,,,0.013575000000,  -2.00000,
,,,0.013576000000,  -2.00000,
,,,0.013577000000,  -2.00000,
,,,0.013578000000,  -2.00000,
,,,0.013579000000,  -2.00000,
,,,0.013580000000,  -2.00000,
,,,0.013581000000,  -2.00000,
,,,0.013582000000,  -2.00000,
,,,0.013583000000,  -2.00000,
,,,0.013584000000,  -2.00000,
,,,0.013585000000,  -2.00000,
,,,0.013586000000,  -2.00000,
,,,0.013587000000,  -2.00000,
,,,0.013588000000,  -2.00000,
,,,0.013589000000,  -2.00000,
,,,0.013590000000,  -1.80000,
,,,0.013591000000,  -2.00000,
,,,0.013592000000,  -2.00000,
,,,0.013593000000,  -2.00000,
,,,0.013594000000,  -1.80000,
,,,0.013595000000,  -1.80000,
,,,0.013596000000,  -1.80000,
,,,0.013597000000,  -1.80000,
,,,0.013598000000,  -1.80000,
,,,0.013599000000,  -1.80000,
,,,0.013600000000,  -1.80000,
,,,0.013601000000,  -1.80000,
,,,0.013602000000,  -1.80000,
,,,0.013603000000,  -1.80000,
,,,0.013604000000,  -1.80000,
,,,0.013605000000,  -1.80000,
,,,0.013606000000,  -1.80000,
,,,0.013607000000,  -1.80000,
,,,0.013608000000,  -1.80000,
,,,0.013609000000,  -1.80000,
,,,0.013610000000,  -1.80000,
,,,0.013611000000,  -1.80000,
,,,0.013612000000,  -1.80000,
,,,0.013613000000,  -1.80000,
,,,0.013614000000,  -1.80000,
,,,0.013615000000,  -1.80000,
,,,0.013616000000,  -1.80000,
,,,0.013617000000,  -1.80000,
,,,0.013618000000,  -1.80000,
,,,0.013619000000,  -1.80000,
,,,0.013620000000,  -1.80000,
,,,0.013621000000,  -1.80000,
,,,0.013622000000,  -1.80000,
,,,0.013623000000,  -1.80000,
,,,0.013624000000,  -1.80000,
,,,0.013625000000,  -1.80000,
,,,0.013626000000,  -1.80000,
,,,0.013627000000,  -1.60000,
,,,0.013628000000,  -1.80000,
,,,0.013629000000,  -1.60000,
,,,0.013630000000,  -1.60000,
,,,0.013631000000,  -1.80000,
,,,0.013632000000,  -1.60000,
,,,0.013633000000,  -1.60000,
,,,0.013634000000,  -1.60000,
,,,0.013635000000,  -1.80000,
,,,0.013636000000,  -1.60000,
,,,0.013637000000,  -1.60000,
,,,0.013638000000,  -1.80000,
,,,0.013639000000,  -1.60000,
,,,0.013640000000,  -1.60000,
,,,0.013641000000,  -1.60000,
,,,0.013642000000,  -1.60000,
,,,0.013643000000,  -1.60000,
,,,0.013644000000,  -1.60000,
,,,0.013645000000,  -1.60000,
,,,0.013646000000,  -1.60000,
,,,0.013647000000,  -1.60000,
,,,0.013648000000,  -1.60000,
,,,0.013649000000,  -1.60000,
,,,0.013650000000,  -1.60000,
,,,0.013651000000,  -1.40000,
,,,0.013652000000,  -1.60000,
,,,0.013653000000,  -1.60000,
,,,0.013654000000,  -1.60000,
,,,0.013655000000,  -1.60000,
,,,0.013656000000,  -1.60000,
,,,0.013657000000,  -1.60000,
,,,0.013658000000,  -1.60000,
,,,0.013659000000,  -1.40000,
,,,0.013660000000,  -1.60000,
,,,0.013661000000,  -1.60000,
,,,0.013662000000,  -1.60000,
,,,0.013663000000,  -1.60000,
,,,0.013664000000,  -1.60000,
,,,0.013665000000,  -1.60000,
,,,0.013666000000,  -1.60000,
,,,0.013667000000,  -1.40000,
,,,0.013668000000,  -1.40000,
,,,0.013669000000,  -1.60000,
,,,0.013670000000,  -1.60000,
,,,0.013671000000,  -1.60000,
,,,0.013672000000,  -1.60000,
,,,0.013673000000,  -1.60000,
,,,0.013674000000,  -1.60000,
,,,0.013675000000,  -1.40000,
,,,0.013676000000,  -1.40000,
,,,0.013677000000,  -1.40000,
,,,0.013678000000,  -1.40000,
,,,0.013679000000,  -1.40000,
,,,0.013680000000,  -1.40000,
,,,0.013681000000,  -1.60000,
,,,0.013682000000,  -1.40000,
,,,0.013683000000,  -1.40000,
,,,0.013684000000,  -1.60000,
,,,0.013685000000,  -1.40000,
,,,0.013686000000,  -1.40000,
,,,0.013687000000,  -1.40000,
,,,0.013688000000,  -1.40000,
,,,0.013689000000,  -1.40000,
,,,0.013690000000,  -1.40000,
,,,0.013691000000,  -1.40000,
,,,0.013692000000,  -1.40000,
,,,0.013693000000,  -1.40000,
,,,0.013694000000,  -1.40000,
,,,0.013695000000,  -1.40000,
,,,0.013696000000,  -1.40000,
,,,0.013697000000,  -1.40000,
,,,0.013698000000,  -1.40000,
,,,0.013699000000,  -1.40000,
,,,0.013700000000,  -1.40000,
,,,0.013701000000,  -1.40000,
,,,0.013702000000,  -1.40000,
,,,0.013703000000,  -1.40000,
,,,0.013704000000,  -1.40000,
,,,0.013705000000,  -1.20000,
,,,0.013706000000,  -1.20000,
,,,0.013707000000,  -1.20000,
,,,0.013708000000,  -1.20000,
,,,0.013709000000,  -1.40000,
,,,0.013710000000,  -1.40000,
,,,0.013711000000,  -1.20000,
,,,0.013712000000,  -1.40000,
,,,0.013713000000,  -1.40000,
,,,0.013714000000,  -1.40000,
,,,0.013715000000,  -1.20000,
,,,0.013716000000,  -1.40000,
,,,0.013717000000,  -1.40000,
,,,0.013718000000,  -1.20000,
,,,0.013719000000,  -1.20000,
,,,0.013720000000,  -1.20000,
,,,0.013721000000,  -1.40000,
,,,0.013722000000,  -1.20000,
,,,0.013723000000,  -1.40000,
,,,0.013724000000,  -1.20000,
,,,0.013725000000,  -1.20000,
,,,0.013726000000,  -1.20000,
,,,0.013727000000,  -1.20000,
,,,0.013728000000,  -1.20000,
,,,0.013729000000,  -1.20000,
,,,0.013730000000,  -1.20000,
,,,0.013731000000,  -1.20000,
,,,0.013732000000,  -1.20000,
,,,0.013733000000,  -1.20000,
,,,0.013734000000,  -1.20000,
,,,0.013735000000,  -1.20000,
,,,0.013736000000,  -1.20000,
,,,0.013737000000,  -1.20000,
,,,0.013738000000,  -1.20000,
,,,0.013739000000,  -1.20000,
,,,0.013740000000,  -1.20000,
,,,0.013741000000,  -1.20000,
,,,0.013742000000,  -1.20000,
,,,0.013743000000,  -1.20000,
,,,0.013744000000,  -1.20000,
,,,0.013745000000,  -1.20000,
,,,0.013746000000,  -1.20000,
,,,0.013747000000,  -1.20000,
,,,0.013748000000,  -1.20000,
,,,0.013749000000,  -1.20000,
,,,0.013750000000,  -1.20000,
,,,0.013751000000,  -1.20000,
,,,0.013752000000,  -1.20000,
,,,0.013753000000,  -1.20000,
,,,0.013754000000,  -1.20000,
,,,0.013755000000,  -1.20000,
,,,0.013756000000,  -1.20000,
,,,0.013757000000,  -1.20000,
,,,0.013758000000,  -1.20000,
,,,0.013759000000,  -1.20000,
,,,0.013760000000,  -1.00000,
,,,0.013761000000,  -1.20000,
,,,0.013762000000,  -1.20000,
,,,0.013763000000,  -1.20000,
,,,0.013764000000,  -1.00000,
,,,0.013765000000,  -1.00000,
,,,0.013766000000,  -1.00000,
,,,0.013767000000,  -1.00000,
,,,0.013768000000,  -1.00000,
,,,0.013769000000,  -1.00000,
,,,0.013770000000,  -0.80000,
,,,0.013771000000,  -1.00000,
,,,0.013772000000,  -0.80000,
,,,0.013773000000,  -0.80000,
,,,0.013774000000,  -0.60000,
,,,0.013775000000,  -0.40000,
,,,0.013776000000,  -0.40000,
,,,0.013777000000,  -0.20000,
,,,0.013778000000,  -0.20000,
,,,0.013779000000,   0.00000,
,,,0.013780000000,   0.20000,
,,,0.013781000000,   0.40000,
,,,0.013782000000,   0.40000,
,,,0.013783000000,   0.60000,
,,,0.013784000000,   0.80000,
,,,0.013785000000,   1.00000,
,,,0.013786000000,   1.20000,
,,,0.013787000000,   1.20000,
,,,0.013788000000,   1.60000,
,,,0.013789000000,   1.80000,
,,,0.013790000000,   1.80000,
,,,0.013791000000,   2.00000,
,,,0.013792000000,   2.20000,
,,,0.013793000000,   2.40000,
,,,0.013794000000,   2.60000,
,,,0.013795000000,   2.80000,
,,,0.013796000000,   3.00000,
,,,0.013797000000,   3.20000,
,,,0.013798000000,   3.40000,
,,,0.013799000000,   3.60000,
,,,0.013800000000,   3.60000,
,,,0.013801000000,   3.80000,
,,,0.013802000000,   4.00000,
,,,0.013803000000,   4.20000,
,,,0.013804000000,   4.40000,
,,,0.013805000000,   4.40000,
,,,0.013806000000,   4.60000,
,,,0.013807000000,   4.80000,
,,,0.013808000000,   4.80000,
,,,0.013809000000,   5.00000,
,,,0.013810000000,   5.00000,
,,,0.013811000000,   5.20000,
,,,0.013812000000,   5.20000,
,,,0.013813000000,   5.20000,
,,,0.013814000000,   5.40000,
,,,0.013815000000,   5.40000,
,,,0.013816000000,   5.40000,
,,,0.013817000000,   5.40000,
,,,0.013818000000,   5.40000,
,,,0.013819000000,   5.60000,
,,,0.013820000000,   5.40000,
,,,0.013821000000,   5.60000,
,,,0.013822000000,   5.60000,
,,,0.013823000000,   5.40000,
,,,0.013824000000,   5.60000,
,,,0.013825000000,   5.40000,
,,,0.013826000000,   5.40000,
,,,0.013827000000,   5.40000,
,,,0.013828000000,   5.40000,
,,,0.013829000000,   5.40000,
,,,0.013830000000,   5.40000,
,,,0.013831000000,   5.40000,
,,,0.013832000000,   5.20000,
,,,0.013833000000,   5.20000,
,,,0.013834000000,   5.20000,
,,,0.013835000000,   5.20000,
,,,0.013836000000,   5.20000,
,,,0.013837000000,   5.20000,
,,,0.013838000000,   5.00000,
,,,0.013839000000,   5.00000,
,,,0.013840000000,   5.00000,
,,,0.013841000000,   4.80000,
,,,0.013842000000,   5.00000,
,,,0.013843000000,   4.80000,
,,,0.013844000000,   4.80000,
,,,0.013845000000,   4.80000,
,,,0.013846000000,   4.80000,
,,,0.013847000000,   4.80000,
,,,0.013848000000,   4.60000,
,,,0.013849000000,   4.60000,
,,,0.013850000000,   4.60000,
,,,0.013851000000,   4.60000,
,,,0.013852000000,   4.60000,
,,,0.013853000000,   4.60000,
,,,0.013854000000,   4.60000,
,,,0.013855000000,   4.40000,
,,,0.013856000000,   4.40000,
,,,0.013857000000,   4.40000,
,,,0.013858000000,   4.40000,
,,,0.013859000000,   4.40000,
,,,0.013860000000,   4.40000,
,,,0.013861000000,   4.40000,
,,,0.013862000000,   4.40000,
,,,0.013863000000,   4.40000,
,,,0.013864000000,   4.40000,
,,,0.013865000000,   4.40000,
,,,0.013866000000,   4.40000,
,,,0.013867000000,   4.20000,
,,,0.013868000000,   4.20000,
,,,0.013869000000,   4.20000,
,,,0.013870000000,   4.20000,
,,,0.013871000000,   4.20000,
,,,0.013872000000,   4.20000,
,,,0.013873000000,   4.20000,
,,,0.013874000000,   4.20000,
,,,0.013875000000,   4.20000,
,,,0.013876000000,   4.20000,
,,,0.013877000000,   4.00000,
,,,0.013878000000,   4.20000,
,,,0.013879000000,   4.00000,
,,,0.013880000000,   4.00000,
,,,0.013881000000,   4.00000,
,,,0.013882000000,   4.00000,
,,,0.013883000000,   4.00000,
,,,0.013884000000,   4.00000,
,,,0.013885000000,   4.00000,
,,,0.013886000000,   4.00000,
,,,0.013887000000,   4.00000,
,,,0.013888000000,   4.00000,
,,,0.013889000000,   4.00000,
,,,0.013890000000,   3.80000,
,,,0.013891000000,   4.00000,
,,,0.013892000000,   3.80000,
,,,0.013893000000,   4.00000,
,,,0.013894000000,   4.00000,
,,,0.013895000000,   3.80000,
,,,0.013896000000,   3.80000,
,,,0.013897000000,   3.80000,
,,,0.013898000000,   3.80000,
,,,0.013899000000,   3.80000,
,,,0.013900000000,   3.80000,
,,,0.013901000000,   3.80000,
,,,0.013902000000,   3.80000,
,,,0.013903000000,   3.80000,
,,,0.013904000000,   3.80000,
,,,0.013905000000,   3.80000,
,,,0.013906000000,   3.80000,
,,,0.013907000000,   3.80000,
,,,0.013908000000,   3.80000,
,,,0.013909000000,   3.80000,
,,,0.013910000000,   3.80000,
,,,0.013911000000,   3.80000,
,,,0.013912000000,   3.80000,
,,,0.013913000000,   3.60000,
,,,0.013914000000,   3.60000,
,,,0.013915000000,   3.80000,
,,,0.013916000000,   3.60000,
,,,0.013917000000,   3.60000,
,,,0.013918000000,   3.80000,
,,,0.013919000000,   3.60000,
,,,0.013920000000,   3.60000,
,,,0.013921000000,   3.60000,
,,,0.013922000000,   3.60000,
,,,0.013923000000,   3.60000,
,,,0.013924000000,   3.60000,
,,,0.013925000000,   3.60000,
,,,0.013926000000,   3.60000,
,,,0.013927000000,   3.60000,
,,,0.013928000000,   3.60000,
,,,0.013929000000,   3.60000,
,,,0.013930000000,   3.60000,
,,,0.013931000000,   3.40000,
,,,0.013932000000,   3.60000,
,,,0.013933000000,   3.60000,
,,,0.013934000000,   3.40000,
,,,0.013935000000,   3.60000,
,,,0.013936000000,   3.40000,
,,,0.013937000000,   3.40000,
,,,0.013938000000,   3.40000,
,,,0.013939000000,   3.40000,
,,,0.013940000000,   3.40000,
,,,0.013941000000,   3.40000,
,,,0.013942000000,   3.40000,
,,,0.013943000000,   3.40000,
,,,0.013944000000,   3.40000,
,,,0.013945000000,   3.40000,
,,,0.013946000000,   3.40000,
,,,0.013947000000,   3.20000,
,,,0.013948000000,   3.20000,
,,,0.013949000000,   3.20000,
,,,0.013950000000,   3.20000,
,,,0.013951000000,   3.20000,
,,,0.013952000000,   3.20000,
,,,0.013953000000,   3.20000,
,,,0.013954000000,   3.20000,
,,,0.013955000000,   3.20000,
,,,0.013956000000,   3.20000,
,,,0.013957000000,   3.20000,
,,,0.013958000000,   3.20000,
,,,0.013959000000,   3.20000,
,,,0.013960000000,   3.20000,
,,,0.013961000000,   3.20000,
,,,0.013962000000,   3.20000,
,,,0.013963000000,   3.20000,
,,,0.013964000000,   3.20000,
,,,0.013965000000,   3.20000,
,,,0.013966000000,   3.20000,
,,,0.013967000000,   3.20000,
,,,0.013968000000,   3.20000,
,,,0.013969000000,   3.20000,
,,,0.013970000000,   3.00000,
,,,0.013971000000,   3.00000,
,,,0.013972000000,   3.00000,
,,,0.013973000000,   3.00000,
,,,0.013974000000,   3.20000,
,,,0.013975000000,   3.00000,
,,,0.013976000000,   3.00000,
,,,0.013977000000,   3.00000,
,,,0.013978000000,   3.00000,
,,,0.013979000000,   3.00000,
,,,0.013980000000,   3.00000,
,,,0.013981000000,   3.00000,
,,,0.013982000000,   3.00000,
,,,0.013983000000,   2.80000,
,,,0.013984000000,   3.00000,
,,,0.013985000000,   2.80000,
,,,0.013986000000,   2.80000,
,,,0.013987000000,   2.80000,
,,,0.013988000000,   2.80000,
,,,0.013989000000,   2.80000,
,,,0.013990000000,   2.80000,
,,,0.013991000000,   2.80000,
,,,0.013992000000,   2.80000,
,,,0.013993000000,   3.00000,
,,,0.013994000000,   2.80000,
,,,0.013995000000,   2.80000,
,,,0.013996000000,   2.80000,
,,,0.013997000000,   2.80000,
,,,0.013998000000,   2.80000,
,,,0.013999000000,   2.80000,
,,,0.014000000000,   2.80000,
,,,0.014001000000,   2.60000,
,,,0.014002000000,   2.80000,
,,,0.014003000000,   2.80000,
,,,0.014004000000,   2.60000,
,,,0.014005000000,   2.80000,
,,,0.014006000000,   2.60000,
,,,0.014007000000,   2.80000,
,,,0.014008000000,   2.60000,
,,,0.014009000000,   2.80000,
,,,0.014010000000,   2.60000,
,,,0.014011000000,   2.80000,
,,,0.014012000000,   2.60000,
,,,0.014013000000,   2.60000,
,,,0.014014000000,   2.60000,
,,,0.014015000000,   2.60000,
,,,0.014016000000,   2.60000,
,,,0.014017000000,   2.60000,
,,,0.014018000000,   2.60000,
,,,0.014019000000,   2.60000,
,,,0.014020000000,   2.60000,
,,,0.014021000000,   2.60000,
,,,0.014022000000,   2.60000,
,,,0.014023000000,   2.60000,
,,,0.014024000000,   2.60000,
,,,0.014025000000,   2.60000,
,,,0.014026000000,   2.60000,
,,,0.014027000000,   2.60000,
,,,0.014028000000,   2.60000,
,,,0.014029000000,   2.60000,
,,,0.014030000000,   2.60000,
,,,0.014031000000,   2.60000,
,,,0.014032000000,   2.60000,
,,,0.014033000000,   2.60000,
