C-Praktikum(1)/C41/Versuch C41 Daniel Michel Sander Scheel/Oszilloskop Datein/ALL0007/F0007CH1.CSV

Record Length,2.500000e+03,,   0.002130000000,   4.00000,
Sample Interval,1.000000e-05,,   0.002140000000,   4.00000,
Trigger Point,-2.130000000000e+02,,   0.002150000000,   4.00000,
,,,   0.002160000000,   4.00000,
,,,   0.002170000000,   4.00000,
,,,   0.002180000000,   4.00000,
Source,CH1,,   0.002190000000,   4.00000,
Vertical Units,V,,   0.002200000000,   4.00000,
Vertical Scale,5.000000e+00,,   0.002210000000,   4.00000,
Vertical Offset,1.000000e+01,,   0.002220000000,   4.00000,
Horizontal Units,s,,   0.002230000000,   4.00000,
Horizontal Scale,2.500000e-03,,   0.002240000000,   4.00000,
Pt Fmt,Y,,   0.002250000000,   4.00000,
Yzero,0.000000e+00,,   0.002260000000,   4.00000,
Probe Atten,1.000000e+00,,   0.002270000000,   4.00000,
Model Number,TDS1001B,,   0.002280000000,   4.00000,
Serial Number,C040309,,   0.002290000000,   4.00000,
Firmware Version,FV:v22.01,,   0.002300000000,   4.00000,
,,,0.002310000000,   4.00000,
,,,0.002320000000,   4.00000,
,,,0.002330000000,   4.00000,
,,,0.002340000000,   4.00000,
,,,0.002350000000,   4.00000,
,,,0.002360000000,   4.00000,
,,,0.002370000000,   4.00000,
,,,0.002380000000,   4.00000,
,,,0.002390000000,   4.00000,
,,,0.002400000000,   4.00000,
,,,0.002410000000,   4.00000,
,,,0.002420000000,   4.00000,
,,,0.002430000000,   4.00000,
,,,0.002440000000,   4.00000,
,,,0.002450000000,   4.00000,
,,,0.002460000000,   4.00000,
,,,0.002470000000,   4.00000,
,,,0.002480000000,   3.80000,
,,,0.002490000000,   3.80000,
,,,0.002500000000,   4.00000,
,,,0.002510000000,   4.00000,
,,,0.002520000000,   3.80000,
,,,0.002530000000,   3.80000,
,,,0.002540000000,   3.80000,
,,,0.002550000000,   3.80000,
,,,0.002560000000,   3.80000,
,,,0.002570000000,   3.80000,
,,,0.002580000000,   3.80000,
,,,0.002590000000,   3.80000,
,,,0.002600000000,   3.80000,
,,,0.002610000000,   3.80000,
,,,0.002620000000,   3.80000,
,,,0.002630000000,   3.60000,
,,,0.002640000000,   3.80000,
,,,0.002650000000,   3.80000,
,,,0.002660000000,   3.80000,
,,,0.002670000000,   3.60000,
,,,0.002680000000,   3.60000,
,,,0.002690000000,   3.60000,
,,,0.002700000000,   3.60000,
,,,0.002710000000,   3.60000,
,,,0.002720000000,   3.60000,
,,,0.002730000000,   3.60000,
,,,0.002740000000,   3.40000,
,,,0.002750000000,   3.60000,
,,,0.002760000000,   3.60000,
,,,0.002770000000,   3.60000,
,,,0.002780000000,   3.40000,
,,,0.002790000000,   3.60000,
,,,0.002800000000,   3.40000,
,,,0.002810000000,   3.40000,
,,,0.002820000000,   3.40000,
,,,0.002830000000,   3.40000,
,,,0.002840000000,   3.40000,
,,,0.002850000000,   3.40000,
,,,0.002860000000,   3.40000,
,,,0.002870000000,   3.40000,
,,,0.002880000000,   3.40000,
,,,0.002890000000,   3.40000,
,,,0.002900000000,   3.40000,
,,,0.002910000000,   3.40000,
,,,0.002920000000,   3.40000,
,,,0.002930000000,   3.40000,
,,,0.002940000000,   3.40000,
,,,0.002950000000,   3.40000,
,,,0.002960000000,   3.20000,
,,,0.002970000000,   3.20000,
,,,0.002980000000,   3.20000,
,,,0.002990000000,   3.20000,
,,,0.003000000000,   3.20000,
,,,0.003010000000,   3.20000,
,,,0.003020000000,   3.20000,
,,,0.003030000000,   3.20000,
,,,0.003040000000,   3.00000,
,,,0.003050000000,   3.00000,
,,,0.003060000000,   3.00000,
,,,0.003070000000,   3.00000,
,,,0.003080000000,   3.00000,
,,,0.003090000000,   3.00000,
,,,0.003100000000,   3.00000,
,,,0.003110000000,   3.00000,
,,,0.003120000000,   3.00000,
,,,0.003130000000,   3.00000,
,,,0.003140000000,   3.00000,
,,,0.003150000000,   3.00000,
,,,0.003160000000,   2.80000,
,,,0.003170000000,   3.00000,
,,,0.003180000000,   2.80000,
,,,0.003190000000,   2.80000,
,,,0.003200000000,   2.80000,
,,,0.003210000000,   3.00000,
,,,0.003220000000,   2.80000,
,,,0.003230000000,   2.80000,
,,,0.003240000000,   2.80000,
,,,0.003250000000,   2.80000,
,,,0.003260000000,   2.80000,
,,,0.003270000000,   2.80000,
,,,0.003280000000,   2.80000,
,,,0.003290000000,   2.80000,
,,,0.003300000000,   2.80000,
,,,0.003310000000,   2.60000,
,,,0.003320000000,   2.80000,
,,,0.003330000000,   2.80000,
,,,0.003340000000,   2.60000,
,,,0.003350000000,   2.60000,
,,,0.003360000000,   2.60000,
,,,0.003370000000,   2.60000,
,,,0.003380000000,   2.60000,
,,,0.003390000000,   2.60000,
,,,0.003400000000,   2.40000,
,,,0.003410000000,   2.60000,
,,,0.003420000000,   2.60000,
,,,0.003430000000,   2.60000,
,,,0.003440000000,   2.40000,
,,,0.003450000000,   2.40000,
,,,0.003460000000,   2.40000,
,,,0.003470000000,   2.40000,
,,,0.003480000000,   2.40000,
,,,0.003490000000,   2.40000,
,,,0.003500000000,   2.40000,
,,,0.003510000000,   2.40000,
,,,0.003520000000,   2.40000,
,,,0.003530000000,   2.40000,
,,,0.003540000000,   2.40000,
,,,0.003550000000,   2.40000,
,,,0.003560000000,   2.40000,
,,,0.003570000000,   2.20000,
,,,0.003580000000,   2.20000,
,,,0.003590000000,   2.20000,
,,,0.003600000000,   2.20000,
,,,0.003610000000,   2.20000,
,,,0.003620000000,   2.20000,
,,,0.003630000000,   2.40000,
,,,0.003640000000,   2.20000,
,,,0.003650000000,   2.20000,
,,,0.003660000000,   2.20000,
,,,0.003670000000,   2.20000,
,,,0.003680000000,   2.00000,
,,,0.003690000000,   2.00000,
,,,0.003700000000,   2.20000,
,,,0.003710000000,   2.20000,
,,,0.003720000000,   2.20000,
,,,0.003730000000,   2.20000,
,,,0.003740000000,   2.00000,
,,,0.003750000000,   2.00000,
,,,0.003760000000,   2.00000,
,,,0.003770000000,   2.00000,
,,,0.003780000000,   2.00000,
,,,0.003790000000,   2.00000,
,,,0.003800000000,   2.00000,
,,,0.003810000000,   1.80000,
,,,0.003820000000,   2.00000,
,,,0.003830000000,   2.00000,
,,,0.003840000000,   2.00000,
,,,0.003850000000,   1.80000,
,,,0.003860000000,   1.80000,
,,,0.003870000000,   1.80000,
,,,0.003880000000,   1.80000,
,,,0.003890000000,   1.80000,
,,,0.003900000000,   1.80000,
,,,0.003910000000,   1.80000,
,,,0.003920000000,   1.80000,
,,,0.003930000000,   1.80000,
,,,0.003940000000,   1.60000,
,,,0.003950000000,   1.60000,
,,,0.003960000000,   1.60000,
,,,0.003970000000,   1.60000,
,,,0.003980000000,   1.60000,
,,,0.003990000000,   1.60000,
,,,0.004000000000,   1.60000,
,,,0.004010000000,   1.60000,
,,,0.004020000000,   1.60000,
,,,0.004030000000,   1.60000,
,,,0.004040000000,   1.60000,
,,,0.004050000000,   1.60000,
,,,0.004060000000,   1.60000,
,,,0.004070000000,   1.60000,
,,,0.004080000000,   1.40000,
,,,0.004090000000,   1.40000,
,,,0.004100000000,   1.40000,
,,,0.004110000000,   1.40000,
,,,0.004120000000,   1.40000,
,,,0.004130000000,   1.40000,
,,,0.004140000000,   1.40000,
,,,0.004150000000,   1.40000,
,,,0.004160000000,   1.20000,
,,,0.004170000000,   1.40000,
,,,0.004180000000,   1.40000,
,,,0.004190000000,   1.20000,
,,,0.004200000000,   1.20000,
,,,0.004210000000,   1.20000,
,,,0.004220000000,   1.40000,
,,,0.004230000000,   1.20000,
,,,0.004240000000,   1.20000,
,,,0.004250000000,   1.20000,
,,,0.004260000000,   1.20000,
,,,0.004270000000,   1.20000,
,,,0.004280000000,   1.20000,
,,,0.004290000000,   1.20000,
,,,0.004300000000,   1.00000,
,,,0.004310000000,   1.00000,
,,,0.004320000000,   1.00000,
,,,0.004330000000,   1.20000,
,,,0.004340000000,   1.00000,
,,,0.004350000000,   1.00000,
,,,0.004360000000,   1.00000,
,,,0.004370000000,   1.00000,
,,,0.004380000000,   1.00000,
,,,0.004390000000,   1.00000,
,,,0.004400000000,   1.00000,
,,,0.004410000000,   1.00000,
,,,0.004420000000,   1.00000,
,,,0.004430000000,   1.00000,
,,,0.004440000000,   0.80000,
,,,0.004450000000,   1.00000,
,,,0.004460000000,   0.80000,
,,,0.004470000000,   1.00000,
,,,0.004480000000,   0.80000,
,,,0.004490000000,   0.80000,
,,,0.004500000000,   0.80000,
,,,0.004510000000,   0.80000,
,,,0.004520000000,   0.80000,
,,,0.004530000000,   0.80000,
,,,0.004540000000,   0.80000,
,,,0.004550000000,   0.80000,
,,,0.004560000000,   0.80000,
,,,0.004570000000,   0.80000,
,,,0.004580000000,   0.60000,
,,,0.004590000000,   0.60000,
,,,0.004600000000,   0.60000,
,,,0.004610000000,   0.60000,
,,,0.004620000000,   0.60000,
,,,0.004630000000,   0.60000,
,,,0.004640000000,   0.60000,
,,,0.004650000000,   0.60000,
,,,0.004660000000,   0.60000,
,,,0.004670000000,   0.60000,
,,,0.004680000000,   0.60000,
,,,0.004690000000,   0.60000,
,,,0.004700000000,   0.60000,
,,,0.004710000000,   0.60000,
,,,0.004720000000,   0.40000,
,,,0.004730000000,   0.60000,
,,,0.004740000000,   0.40000,
,,,0.004750000000,   0.40000,
,,,0.004760000000,   0.40000,
,,,0.004770000000,   0.40000,
,,,0.004780000000,   0.40000,
,,,0.004790000000,   0.40000,
,,,0.004800000000,   0.40000,
,,,0.004810000000,   0.40000,
,,,0.004820000000,   0.40000,
,,,0.004830000000,   0.40000,
,,,0.004840000000,   0.40000,
,,,0.004850000000,   0.20000,
,,,0.004860000000,   0.20000,
,,,0.004870000000,   0.40000,
,,,0.004880000000,   0.20000,
,,,0.004890000000,   0.20000,
,,,0.004900000000,   0.40000,
,,,0.004910000000,   0.20000,
,,,0.004920000000,   0.20000,
,,,0.004930000000,   0.20000,
,,,0.004940000000,   0.20000,
,,,0.004950000000,   0.20000,
,,,0.004960000000,   0.20000,
,,,0.004970000000,   0.20000,
,,,0.004980000000,   0.20000,
,,,0.004990000000,   0.00000,
,,,0.005000000000,   0.20000,
,,,0.005010000000,   0.20000,
,,,0.005020000000,   0.00000,
,,,0.005030000000,   0.00000,
,,,0.005040000000,   0.00000,
,,,0.005050000000,   0.00000,
,,,0.005060000000,   0.00000,
,,,0.005070000000,   0.00000,
,,,0.005080000000,   0.00000,
,,,0.005090000000,   0.00000,
,,,0.005100000000,   0.00000,
,,,0.005110000000,   0.00000,
,,,0.005120000000,  -0.20000,
,,,0.005130000000,  -0.20000,
,,,0.005140000000,  -0.20000,
,,,0.005150000000,  -0.20000,
,,,0.005160000000,  -0.20000,
,,,0.005170000000,  -0.20000,
,,,0.005180000000,  -0.20000,
,,,0.005190000000,  -0.20000,
,,,0.005200000000,  -0.20000,
,,,0.005210000000,  -0.20000,
,,,0.005220000000,  -0.20000,
,,,0.005230000000,  -0.20000,
,,,0.005240000000,  -0.20000,
,,,0.005250000000,  -0.20000,
,,,0.005260000000,  -0.40000,
,,,0.005270000000,  -0.20000,
,,,0.005280000000,  -0.40000,
,,,0.005290000000,  -0.40000,
,,,0.005300000000,  -0.20000,
,,,0.005310000000,  -0.40000,
,,,0.005320000000,  -0.40000,
,,,0.005330000000,  -0.40000,
,,,0.005340000000,  -0.40000,
,,,0.005350000000,  -0.40000,
,,,0.005360000000,  -0.40000,
,,,0.005370000000,  -0.40000,
,,,0.005380000000,  -0.40000,
,,,0.005390000000,  -0.60000,
,,,0.005400000000,  -0.60000,
,,,0.005410000000,  -0.40000,
,,,0.005420000000,  -0.60000,
,,,0.005430000000,  -0.40000,
,,,0.005440000000,  -0.60000,
,,,0.005450000000,  -0.60000,
,,,0.005460000000,  -0.60000,
,,,0.005470000000,  -0.60000,
,,,0.005480000000,  -0.60000,
,,,0.005490000000,  -0.60000,
,,,0.005500000000,  -0.60000,
,,,0.005510000000,  -0.60000,
,,,0.005520000000,  -0.60000,
,,,0.005530000000,  -0.60000,
,,,0.005540000000,  -0.60000,
,,,0.005550000000,  -0.60000,
,,,0.005560000000,  -0.80000,
,,,0.005570000000,  -0.80000,
,,,0.005580000000,  -0.80000,
,,,0.005590000000,  -0.80000,
,,,0.005600000000,  -0.80000,
,,,0.005610000000,  -0.80000,
,,,0.005620000000,  -0.80000,
,,,0.005630000000,  -0.80000,
,,,0.005640000000,  -0.80000,
,,,0.005650000000,  -0.80000,
,,,0.005660000000,  -0.80000,
,,,0.005670000000,  -1.00000,
,,,0.005680000000,  -0.80000,
,,,0.005690000000,  -1.00000,
,,,0.005700000000,  -1.00000,
,,,0.005710000000,  -1.00000,
,,,0.005720000000,  -1.00000,
,,,0.005730000000,  -1.00000,
,,,0.005740000000,  -1.00000,
,,,0.005750000000,  -1.00000,
,,,0.005760000000,  -1.00000,
,,,0.005770000000,  -1.00000,
,,,0.005780000000,  -1.00000,
,,,0.005790000000,  -1.00000,
,,,0.005800000000,  -1.20000,
,,,0.005810000000,  -1.00000,
,,,0.005820000000,  -1.20000,
,,,0.005830000000,  -1.20000,
,,,0.005840000000,  -1.20000,
,,,0.005850000000,  -1.00000,
,,,0.005860000000,  -1.20000,
,,,0.005870000000,  -1.20000,
,,,0.005880000000,  -1.20000,
,,,0.005890000000,  -1.20000,
,,,0.005900000000,  -1.20000,
,,,0.005910000000,  -1.20000,
,,,0.005920000000,  -1.20000,
,,,0.005930000000,  -1.20000,
,,,0.005940000000,  -1.20000,
,,,0.005950000000,  -1.20000,
,,,0.005960000000,  -1.40000,
,,,0.005970000000,  -1.20000,
,,,0.005980000000,  -1.40000,
,,,0.005990000000,  -1.20000,
,,,0.006000000000,  -1.40000,
,,,0.006010000000,  -1.40000,
,,,0.006020000000,  -1.40000,
,,,0.006030000000,  -1.40000,
,,,0.006040000000,  -1.40000,
,,,0.006050000000,  -1.40000,
,,,0.006060000000,  -1.40000,
,,,0.006070000000,  -1.40000,
,,,0.006080000000,  -1.40000,
,,,0.006090000000,  -1.40000,
,,,0.006100000000,  -1.40000,
,,,0.006110000000,  -1.60000,
,,,0.006120000000,  -1.60000,
,,,0.006130000000,  -1.60000,
,,,0.006140000000,  -1.40000,
,,,0.006150000000,  -1.60000,
,,,0.006160000000,  -1.60000,
,,,0.006170000000,  -1.60000,
,,,0.006180000000,  -1.60000,
,,,0.006190000000,  -1.60000,
,,,0.006200000000,  -1.60000,
,,,0.006210000000,  -1.60000,
,,,0.006220000000,  -1.60000,
,,,0.006230000000,  -1.60000,
,,,0.006240000000,  -1.80000,
,,,0.006250000000,  -1.60000,
,,,0.006260000000,  -1.80000,
,,,0.006270000000,  -1.80000,
,,,0.006280000000,  -1.60000,
,,,0.006290000000,  -1.80000,
,,,0.006300000000,  -1.80000,
,,,0.006310000000,  -1.80000,
,,,0.006320000000,  -1.80000,
,,,0.006330000000,  -1.80000,
,,,0.006340000000,  -1.80000,
,,,0.006350000000,  -1.80000,
,,,0.006360000000,  -1.80000,
,,,0.006370000000,  -1.80000,
,,,0.006380000000,  -1.80000,
,,,0.006390000000,  -2.00000,
,,,0.006400000000,  -2.00000,
,,,0.006410000000,  -1.80000,
,,,0.006420000000,  -2.00000,
,,,0.006430000000,  -2.00000,
,,,0.006440000000,  -2.00000,
,,,0.006450000000,  -2.00000,
,,,0.006460000000,  -2.00000,
,,,0.006470000000,  -2.00000,
,,,0.006480000000,  -2.00000,
,,,0.006490000000,  -2.00000,
,,,0.006500000000,  -2.00000,
,,,0.006510000000,  -2.00000,
,,,0.006520000000,  -2.00000,
,,,0.006530000000,  -2.00000,
,,,0.006540000000,  -2.20000,
,,,0.006550000000,  -2.20000,
,,,0.006560000000,  -2.00000,
,,,0.006570000000,  -2.20000,
,,,0.006580000000,  -2.20000,
,,,0.006590000000,  -2.20000,
,,,0.006600000000,  -2.20000,
,,,0.006610000000,  -2.20000,
,,,0.006620000000,  -2.20000,
,,,0.006630000000,  -2.20000,
,,,0.006640000000,  -2.20000,
,,,0.006650000000,  -2.20000,
,,,0.006660000000,  -2.20000,
,,,0.006670000000,  -2.40000,
,,,0.006680000000,  -2.20000,
,,,0.006690000000,  -2.40000,
,,,0.006700000000,  -2.40000,
,,,0.006710000000,  -2.40000,
,,,0.006720000000,  -2.40000,
,,,0.006730000000,  -2.40000,
,,,0.006740000000,  -2.40000,
,,,0.006750000000,  -2.40000,
,,,0.006760000000,  -2.40000,
,,,0.006770000000,  -2.40000,
,,,0.006780000000,  -2.40000,
,,,0.006790000000,  -2.40000,
,,,0.006800000000,  -2.40000,
,,,0.006810000000,  -2.40000,
,,,0.006820000000,  -2.40000,
,,,0.006830000000,  -2.60000,
,,,0.006840000000,  -2.60000,
,,,0.006850000000,  -2.60000,
,,,0.006860000000,  -2.60000,
,,,0.006870000000,  -2.60000,
,,,0.006880000000,  -2.60000,
,,,0.006890000000,  -2.60000,
,,,0.006900000000,  -2.60000,
,,,0.006910000000,  -2.60000,
,,,0.006920000000,  -2.60000,
,,,0.006930000000,  -2.60000,
,,,0.006940000000,  -2.60000,
,,,0.006950000000,  -2.60000,
,,,0.006960000000,  -2.60000,
,,,0.006970000000,  -2.80000,
,,,0.006980000000,  -2.60000,
,,,0.006990000000,  -2.80000,
,,,0.007000000000,  -2.80000,
,,,0.007010000000,  -2.80000,
,,,0.007020000000,  -2.60000,
,,,0.007030000000,  -2.80000,
,,,0.007040000000,  -2.80000,
,,,0.007050000000,  -2.80000,
,,,0.007060000000,  -2.80000,
,,,0.007070000000,  -2.80000,
,,,0.007080000000,  -2.80000,
,,,0.007090000000,  -2.80000,
,,,0.007100000000,  -3.00000,
,,,0.007110000000,  -2.80000,
,,,0.007120000000,  -3.00000,
,,,0.007130000000,  -3.00000,
,,,0.007140000000,  -2.80000,
,,,0.007150000000,  -3.00000,
,,,0.007160000000,  -3.00000,
,,,0.007170000000,  -3.00000,
,,,0.007180000000,  -3.00000,
,,,0.007190000000,  -3.00000,
,,,0.007200000000,  -3.00000,
,,,0.007210000000,  -3.00000,
,,,0.007220000000,  -3.00000,
,,,0.007230000000,  -3.00000,
,,,0.007240000000,  -3.00000,
,,,0.007250000000,  -3.00000,
,,,0.007260000000,  -3.20000,
,,,0.007270000000,  -3.00000,
,,,0.007280000000,  -3.00000,
,,,0.007290000000,  -3.00000,
,,,0.007300000000,  -3.20000,
,,,0.007310000000,  -3.20000,
,,,0.007320000000,  -3.20000,
,,,0.007330000000,  -3.20000,
,,,0.007340000000,  -3.20000,
,,,0.007350000000,  -3.20000,
,,,0.007360000000,  -3.20000,
,,,0.007370000000,  -3.20000,
,,,0.007380000000,  -3.20000,
,,,0.007390000000,  -3.20000,
,,,0.007400000000,  -3.20000,
,,,0.007410000000,  -3.20000,
,,,0.007420000000,  -3.20000,
,,,0.007430000000,  -3.20000,
,,,0.007440000000,  -3.40000,
,,,0.007450000000,  -3.40000,
,,,0.007460000000,  -3.40000,
,,,0.007470000000,  -3.40000,
,,,0.007480000000,  -3.40000,
,,,0.007490000000,  -3.40000,
,,,0.007500000000,  -3.40000,
,,,0.007510000000,  -3.40000,
,,,0.007520000000,  -3.40000,
,,,0.007530000000,  -3.40000,
,,,0.007540000000,  -3.60000,
,,,0.007550000000,  -3.60000,
,,,0.007560000000,  -3.40000,
,,,0.007570000000,  -3.60000,
,,,0.007580000000,  -3.40000,
,,,0.007590000000,  -3.60000,
,,,0.007600000000,  -3.60000,
,,,0.007610000000,  -3.60000,
,,,0.007620000000,  -3.60000,
,,,0.007630000000,  -3.60000,
,,,0.007640000000,  -3.60000,
,,,0.007650000000,  -3.60000,
,,,0.007660000000,  -3.60000,
,,,0.007670000000,  -3.60000,
,,,0.007680000000,  -3.60000,
,,,0.007690000000,  -3.60000,
,,,0.007700000000,  -3.60000,
,,,0.007710000000,  -3.60000,
,,,0.007720000000,  -3.60000,
,,,0.007730000000,  -3.60000,
,,,0.007740000000,  -3.60000,
,,,0.007750000000,  -3.60000,
,,,0.007760000000,  -3.60000,
,,,0.007770000000,  -3.60000,
,,,0.007780000000,  -3.60000,
,,,0.007790000000,  -3.60000,
,,,0.007800000000,  -3.60000,
,,,0.007810000000,  -3.60000,
,,,0.007820000000,  -3.60000,
,,,0.007830000000,  -3.60000,
,,,0.007840000000,  -3.80000,
,,,0.007850000000,  -3.60000,
,,,0.007860000000,  -3.60000,
,,,0.007870000000,  -3.60000,
,,,0.007880000000,  -3.60000,
,,,0.007890000000,  -3.60000,
,,,0.007900000000,  -3.60000,
,,,0.007910000000,  -3.60000,
,,,0.007920000000,  -3.60000,
,,,0.007930000000,  -3.60000,
,,,0.007940000000,  -3.60000,
,,,0.007950000000,  -3.60000,
,,,0.007960000000,  -3.60000,
,,,0.007970000000,  -3.60000,
,,,0.007980000000,  -3.60000,
,,,0.007990000000,  -3.60000,
,,,0.008000000000,  -3.60000,
,,,0.008010000000,  -3.60000,
,,,0.008020000000,  -3.60000,
,,,0.008030000000,  -3.60000,
,,,0.008040000000,  -3.60000,
,,,0.008050000000,  -3.60000,
,,,0.008060000000,  -3.60000,
,,,0.008070000000,  -3.60000,
,,,0.008080000000,  -3.40000,
,,,0.008090000000,  -3.40000,
,,,0.008100000000,  -3.40000,
,,,0.008110000000,  -3.40000,
,,,0.008120000000,  -3.40000,
,,,0.008130000000,  -3.40000,
,,,0.008140000000,  -3.40000,
,,,0.008150000000,  -3.40000,
,,,0.008160000000,  -3.40000,
,,,0.008170000000,  -3.40000,
,,,0.008180000000,  -3.40000,
,,,0.008190000000,  -3.40000,
,,,0.008200000000,  -3.40000,
,,,0.008210000000,  -3.40000,
,,,0.008220000000,  -3.20000,
,,,0.008230000000,  -3.40000,
,,,0.008240000000,  -3.40000,
,,,0.008250000000,  -3.20000,
,,,0.008260000000,  -3.20000,
,,,0.008270000000,  -3.20000,
,,,0.008280000000,  -3.20000,
,,,0.008290000000,  -3.20000,
,,,0.008300000000,  -3.20000,
,,,0.008310000000,  -3.20000,
,,,0.008320000000,  -3.20000,
,,,0.008330000000,  -3.20000,
,,,0.008340000000,  -3.20000,
,,,0.008350000000,  -3.20000,
,,,0.008360000000,  -3.20000,
,,,0.008370000000,  -3.20000,
,,,0.008380000000,  -3.20000,
,,,0.008390000000,  -3.20000,
,,,0.008400000000,  -3.20000,
,,,0.008410000000,  -3.00000,
,,,0.008420000000,  -3.20000,
,,,0.008430000000,  -3.00000,
,,,0.008440000000,  -3.00000,
,,,0.008450000000,  -3.00000,
,,,0.008460000000,  -3.00000,
,,,0.008470000000,  -3.00000,
,,,0.008480000000,  -3.00000,
,,,0.008490000000,  -3.00000,
,,,0.008500000000,  -3.00000,
,,,0.008510000000,  -3.00000,
,,,0.008520000000,  -3.00000,
,,,0.008530000000,  -3.00000,
,,,0.008540000000,  -3.00000,
,,,0.008550000000,  -3.00000,
,,,0.008560000000,  -2.80000,
,,,0.008570000000,  -2.80000,
,,,0.008580000000,  -2.80000,
,,,0.008590000000,  -2.80000,
,,,0.008600000000,  -2.80000,
,,,0.008610000000,  -2.80000,
,,,0.008620000000,  -2.80000,
,,,0.008630000000,  -2.80000,
,,,0.008640000000,  -2.80000,
,,,0.008650000000,  -2.60000,
,,,0.008660000000,  -2.80000,
