C-Praktikum(1)/C42/Versuch C41 Daniel Michel Sander Scheel/Oszilloskop Datein/ALL0037/F0037CH2.CSV

Record Length,2.500000e+03,,  -0.000000500000,  -0.02000,
Sample Interval,1.000000e-09,,  -0.000000499000,  -0.02000,
Trigger Point,5.000000000000e+02,,  -0.000000498000,  -0.04000,
,,,  -0.000000497000,  -0.06000,
,,,  -0.000000496000,  -0.06000,
,,,  -0.000000495000,  -0.06000,
Source,CH2,,  -0.000000494000,  -0.06000,
Vertical Units,V,,  -0.000000493000,  -0.02000,
Vertical Scale,5.000000e-01,,  -0.000000492000,  -0.02000,
Vertical Offset,-1.040000e+00,,  -0.000000491000,  -0.02000,
Horizontal Units,s,,  -0.000000490000,  -0.04000,
Horizontal Scale,2.500000e-07,,  -0.000000489000,  -0.04000,
Pt Fmt,Y,,  -0.000000488000,  -0.04000,
Yzero,0.000000e+00,,  -0.000000487000,  -0.04000,
Probe Atten,1.000000e+01,,  -0.000000486000,   0.00000,
Model Number,TDS1001B,,  -0.000000485000,  -0.02000,
Serial Number,C040317,,  -0.000000484000,  -0.02000,
Firmware Version,FV:v22.01,,  -0.000000483000,  -0.02000,
,,,-00.000000482000,  -0.08000,
,,,-00.000000481000,  -0.04000,
,,,-00.000000480000,  -0.06000,
,,,-00.000000479000,  -0.06000,
,,,-00.000000478000,  -0.06000,
,,,-00.000000477000,  -0.04000,
,,,-00.000000476000,  -0.02000,
,,,-00.000000475000,   0.00000,
,,,-00.000000474000,   0.00000,
,,,-00.000000473000,  -0.04000,
,,,-00.000000472000,  -0.02000,
,,,-00.000000471000,  -0.04000,
,,,-00.000000470000,  -0.04000,
,,,-00.000000469000,  -0.04000,
,,,-00.000000468000,   0.00000,
,,,-00.000000467000,  -0.04000,
,,,-00.000000466000,  -0.04000,
,,,-00.000000465000,  -0.04000,
,,,-00.000000464000,  -0.04000,
,,,-00.000000463000,  -0.04000,
,,,-00.000000462000,  -0.04000,
,,,-00.000000461000,  -0.06000,
,,,-00.000000460000,  -0.02000,
,,,-00.000000459000,  -0.02000,
,,,-00.000000458000,  -0.02000,
,,,-00.000000457000,  -0.04000,
,,,-00.000000456000,  -0.04000,
,,,-00.000000455000,  -0.04000,
,,,-00.000000454000,  -0.04000,
,,,-00.000000453000,  -0.02000,
,,,-00.000000452000,  -0.04000,
,,,-00.000000451000,  -0.02000,
,,,-00.000000450000,  -0.02000,
,,,-00.000000449000,  -0.04000,
,,,-00.000000448000,  -0.06000,
,,,-00.000000447000,  -0.08000,
,,,-00.000000446000,  -0.06000,
,,,-00.000000445000,  -0.04000,
,,,-00.000000444000,  -0.02000,
,,,-00.000000443000,  -0.04000,
,,,-00.000000442000,  -0.02000,
,,,-00.000000441000,  -0.04000,
,,,-00.000000440000,  -0.04000,
,,,-00.000000439000,  -0.04000,
,,,-00.000000438000,  -0.04000,
,,,-00.000000437000,   0.00000,
,,,-00.000000436000,  -0.02000,
,,,-00.000000435000,   0.00000,
,,,-00.000000434000,  -0.04000,
,,,-00.000000433000,  -0.02000,
,,,-00.000000432000,   0.00000,
,,,-00.000000431000,  -0.04000,
,,,-00.000000430000,  -0.06000,
,,,-00.000000429000,  -0.06000,
,,,-00.000000428000,  -0.04000,
,,,-00.000000427000,  -0.02000,
,,,-00.000000426000,   0.00000,
,,,-00.000000425000,  -0.02000,
,,,-00.000000424000,  -0.04000,
,,,-00.000000423000,  -0.04000,
,,,-00.000000422000,  -0.06000,
,,,-00.000000421000,  -0.04000,
,,,-00.000000420000,  -0.02000,
,,,-00.000000419000,  -0.04000,
,,,-00.000000418000,  -0.04000,
,,,-00.000000417000,  -0.04000,
,,,-00.000000416000,  -0.02000,
,,,-00.000000415000,  -0.06000,
,,,-00.000000414000,  -0.04000,
,,,-00.000000413000,  -0.08000,
,,,-00.000000412000,  -0.04000,
,,,-00.000000411000,  -0.02000,
,,,-00.000000410000,  -0.02000,
,,,-00.000000409000,  -0.04000,
,,,-00.000000408000,  -0.02000,
,,,-00.000000407000,  -0.04000,
,,,-00.000000406000,  -0.04000,
,,,-00.000000405000,  -0.04000,
,,,-00.000000404000,  -0.02000,
,,,-00.000000403000,  -0.06000,
,,,-00.000000402000,  -0.04000,
,,,-00.000000401000,  -0.02000,
,,,-00.000000400000,   0.00000,
,,,-00.000000399000,  -0.04000,
,,,-00.000000398000,  -0.06000,
,,,-00.000000397000,  -0.04000,
,,,-00.000000396000,  -0.06000,
,,,-00.000000395000,  -0.06000,
,,,-00.000000394000,  -0.02000,
,,,-00.000000393000,  -0.02000,
,,,-00.000000392000,  -0.04000,
,,,-00.000000391000,  -0.06000,
,,,-00.000000390000,   0.00000,
,,,-00.000000389000,  -0.02000,
,,,-00.000000388000,  -0.02000,
,,,-00.000000387000,  -0.02000,
,,,-00.000000386000,  -0.04000,
,,,-00.000000385000,  -0.02000,
,,,-00.000000384000,  -0.02000,
,,,-00.000000383000,  -0.04000,
,,,-00.000000382000,  -0.04000,
,,,-00.000000381000,  -0.04000,
,,,-00.000000380000,  -0.06000,
,,,-00.000000379000,  -0.06000,
,,,-00.000000378000,  -0.02000,
,,,-00.000000377000,  -0.04000,
,,,-00.000000376000,  -0.02000,
,,,-00.000000375000,  -0.02000,
,,,-00.000000374000,   0.02000,
,,,-00.000000373000,  -0.02000,
,,,-00.000000372000,  -0.02000,
,,,-00.000000371000,  -0.02000,
,,,-00.000000370000,  -0.02000,
,,,-00.000000369000,  -0.02000,
,,,-00.000000368000,  -0.04000,
,,,-00.000000367000,  -0.04000,
,,,-00.000000366000,  -0.02000,
,,,-00.000000365000,  -0.04000,
,,,-00.000000364000,  -0.02000,
,,,-00.000000363000,  -0.04000,
,,,-00.000000362000,  -0.04000,
,,,-00.000000361000,  -0.04000,
,,,-00.000000360000,   0.00000,
,,,-00.000000359000,   0.00000,
,,,-00.000000358000,  -0.06000,
,,,-00.000000357000,  -0.02000,
,,,-00.000000356000,  -0.04000,
,,,-00.000000355000,  -0.04000,
,,,-00.000000354000,  -0.04000,
,,,-00.000000353000,  -0.04000,
,,,-00.000000352000,  -0.02000,
,,,-00.000000351000,  -0.02000,
,,,-00.000000350000,  -0.02000,
,,,-00.000000349000,  -0.06000,
,,,-00.000000348000,  -0.06000,
,,,-00.000000347000,  -0.04000,
,,,-00.000000346000,  -0.04000,
,,,-00.000000345000,  -0.04000,
,,,-00.000000344000,  -0.04000,
,,,-00.000000343000,  -0.02000,
,,,-00.000000342000,  -0.04000,
,,,-00.000000341000,  -0.02000,
,,,-00.000000340000,  -0.04000,
,,,-00.000000339000,  -0.02000,
,,,-00.000000338000,   0.00000,
,,,-00.000000337000,  -0.02000,
,,,-00.000000336000,  -0.02000,
,,,-00.000000335000,  -0.02000,
,,,-00.000000334000,  -0.04000,
,,,-00.000000333000,  -0.02000,
,,,-00.000000332000,  -0.04000,
,,,-00.000000331000,  -0.06000,
,,,-00.000000330000,  -0.04000,
,,,-00.000000329000,  -0.02000,
,,,-00.000000328000,  -0.02000,
,,,-00.000000327000,   0.00000,
,,,-00.000000326000,  -0.02000,
,,,-00.000000325000,  -0.04000,
,,,-00.000000324000,  -0.04000,
,,,-00.000000323000,  -0.02000,
,,,-00.000000322000,  -0.02000,
,,,-00.000000321000,  -0.02000,
,,,-00.000000320000,  -0.02000,
,,,-00.000000319000,   0.00000,
,,,-00.000000318000,  -0.02000,
,,,-00.000000317000,  -0.04000,
,,,-00.000000316000,  -0.06000,
,,,-00.000000315000,  -0.04000,
,,,-00.000000314000,  -0.06000,
,,,-00.000000313000,  -0.04000,
,,,-00.000000312000,   0.00000,
,,,-00.000000311000,  -0.02000,
,,,-00.000000310000,  -0.02000,
,,,-00.000000309000,  -0.02000,
,,,-00.000000308000,  -0.04000,
,,,-00.000000307000,  -0.04000,
,,,-00.000000306000,  -0.04000,
,,,-00.000000305000,  -0.02000,
,,,-00.000000304000,  -0.04000,
,,,-00.000000303000,  -0.02000,
,,,-00.000000302000,  -0.02000,
,,,-00.000000301000,  -0.04000,
,,,-00.000000300000,  -0.02000,
,,,-00.000000299000,  -0.06000,
,,,-00.000000298000,  -0.04000,
,,,-00.000000297000,  -0.02000,
,,,-00.000000296000,  -0.06000,
,,,-00.000000295000,  -0.02000,
,,,-00.000000294000,  -0.02000,
,,,-00.000000293000,  -0.02000,
,,,-00.000000292000,  -0.04000,
,,,-00.000000291000,  -0.02000,
,,,-00.000000290000,  -0.02000,
,,,-00.000000289000,  -0.04000,
,,,-00.000000288000,  -0.02000,
,,,-00.000000287000,  -0.02000,
,,,-00.000000286000,  -0.02000,
,,,-00.000000285000,  -0.02000,
,,,-00.000000284000,  -0.04000,
,,,-00.000000283000,  -0.04000,
,,,-00.000000282000,  -0.04000,
,,,-00.000000281000,  -0.06000,
,,,-00.000000280000,  -0.08000,
,,,-00.000000279000,  -0.04000,
,,,-00.000000278000,  -0.02000,
,,,-00.000000277000,  -0.04000,
,,,-00.000000276000,  -0.02000,
,,,-00.000000275000,  -0.04000,
,,,-00.000000274000,  -0.02000,
,,,-00.000000273000,  -0.04000,
,,,-00.000000272000,  -0.06000,
,,,-00.000000271000,  -0.06000,
,,,-00.000000270000,  -0.04000,
,,,-00.000000269000,  -0.06000,
,,,-00.000000268000,  -0.06000,
,,,-00.000000267000,  -0.04000,
,,,-00.000000266000,  -0.04000,
,,,-00.000000265000,  -0.04000,
,,,-00.000000264000,  -0.02000,
,,,-00.000000263000,  -0.04000,
,,,-00.000000262000,  -0.02000,
,,,-00.000000261000,  -0.02000,
,,,-00.000000260000,   0.00000,
,,,-00.000000259000,  -0.04000,
,,,-00.000000258000,  -0.04000,
,,,-00.000000257000,  -0.06000,
,,,-00.000000256000,  -0.04000,
,,,-00.000000255000,  -0.04000,
,,,-00.000000254000,   0.00000,
,,,-00.000000253000,  -0.02000,
,,,-00.000000252000,  -0.02000,
,,,-00.000000251000,  -0.02000,
,,,-00.000000250000,  -0.04000,
,,,-00.000000249000,  -0.06000,
,,,-00.000000248000,  -0.06000,
,,,-00.000000247000,  -0.06000,
,,,-00.000000246000,  -0.02000,
,,,-00.000000245000,  -0.04000,
,,,-00.000000244000,  -0.04000,
,,,-00.000000243000,  -0.02000,
,,,-00.000000242000,  -0.02000,
,,,-00.000000241000,  -0.02000,
,,,-00.000000240000,  -0.02000,
,,,-00.000000239000,  -0.02000,
,,,-00.000000238000,  -0.02000,
,,,-00.000000237000,   0.00000,
,,,-00.000000236000,  -0.04000,
,,,-00.000000235000,  -0.04000,
,,,-00.000000234000,  -0.02000,
,,,-00.000000233000,  -0.02000,
,,,-00.000000232000,  -0.04000,
,,,-00.000000231000,  -0.04000,
,,,-00.000000230000,  -0.04000,
,,,-00.000000229000,  -0.04000,
,,,-00.000000228000,  -0.04000,
,,,-00.000000227000,  -0.04000,
,,,-00.000000226000,  -0.04000,
,,,-00.000000225000,  -0.02000,
,,,-00.000000224000,  -0.04000,
,,,-00.000000223000,  -0.06000,
,,,-00.000000222000,  -0.04000,
,,,-00.000000221000,  -0.04000,
,,,-00.000000220000,  -0.04000,
,,,-00.000000219000,  -0.04000,
,,,-00.000000218000,  -0.04000,
,,,-00.000000217000,  -0.06000,
,,,-00.000000216000,  -0.04000,
,,,-00.000000215000,  -0.08000,
,,,-00.000000214000,  -0.06000,
,,,-00.000000213000,  -0.02000,
,,,-00.000000212000,  -0.02000,
,,,-00.000000211000,  -0.04000,
,,,-00.000000210000,  -0.04000,
,,,-00.000000209000,  -0.04000,
,,,-00.000000208000,  -0.04000,
,,,-00.000000207000,  -0.02000,
,,,-00.000000206000,   0.00000,
,,,-00.000000205000,  -0.02000,
,,,-00.000000204000,  -0.04000,
,,,-00.000000203000,  -0.04000,
,,,-00.000000202000,  -0.04000,
,,,-00.000000201000,  -0.06000,
,,,-00.000000200000,  -0.08000,
,,,-00.000000199000,  -0.06000,
,,,-00.000000198000,  -0.06000,
,,,-00.000000197000,  -0.08000,
,,,-00.000000196000,  -0.04000,
,,,-00.000000195000,  -0.02000,
,,,-00.000000194000,  -0.04000,
,,,-00.000000193000,  -0.06000,
,,,-00.000000192000,  -0.02000,
,,,-00.000000191000,  -0.04000,
,,,-00.000000190000,  -0.04000,
,,,-00.000000189000,  -0.02000,
,,,-00.000000188000,  -0.04000,
,,,-00.000000187000,  -0.04000,
,,,-00.000000186000,  -0.02000,
,,,-00.000000185000,  -0.04000,
,,,-00.000000184000,  -0.04000,
,,,-00.000000183000,  -0.06000,
,,,-00.000000182000,  -0.06000,
,,,-00.000000181000,  -0.04000,
,,,-00.000000180000,  -0.04000,
,,,-00.000000179000,  -0.02000,
,,,-00.000000178000,  -0.06000,
,,,-00.000000177000,  -0.02000,
,,,-00.000000176000,  -0.02000,
,,,-00.000000175000,  -0.02000,
,,,-00.000000174000,  -0.06000,
,,,-00.000000173000,  -0.02000,
,,,-00.000000172000,  -0.04000,
,,,-00.000000171000,  -0.02000,
,,,-00.000000170000,  -0.04000,
,,,-00.000000169000,  -0.06000,
,,,-00.000000168000,  -0.04000,
,,,-00.000000167000,  -0.06000,
,,,-00.000000166000,  -0.06000,
,,,-00.000000165000,  -0.04000,
,,,-00.000000164000,  -0.06000,
,,,-00.000000163000,  -0.04000,
,,,-00.000000162000,  -0.02000,
,,,-00.000000161000,  -0.04000,
,,,-00.000000160000,  -0.02000,
,,,-00.000000159000,  -0.04000,
,,,-00.000000158000,  -0.06000,
,,,-00.000000157000,  -0.06000,
,,,-00.000000156000,  -0.04000,
,,,-00.000000155000,  -0.02000,
,,,-00.000000154000,   0.02000,
,,,-00.000000153000,  -0.02000,
,,,-00.000000152000,  -0.04000,
,,,-00.000000151000,  -0.06000,
,,,-00.000000150000,  -0.04000,
,,,-00.000000149000,  -0.06000,
,,,-00.000000148000,  -0.04000,
,,,-00.000000147000,  -0.04000,
,,,-00.000000146000,  -0.04000,
,,,-00.000000145000,  -0.04000,
,,,-00.000000144000,  -0.04000,
,,,-00.000000143000,  -0.04000,
,,,-00.000000142000,  -0.02000,
,,,-00.000000141000,  -0.04000,
,,,-00.000000140000,  -0.02000,
,,,-00.000000139000,  -0.02000,
,,,-00.000000138000,   0.00000,
,,,-00.000000137000,  -0.02000,
,,,-00.000000136000,  -0.02000,
,,,-00.000000135000,  -0.02000,
,,,-00.000000134000,  -0.06000,
,,,-00.000000133000,  -0.06000,
,,,-00.000000132000,  -0.06000,
,,,-00.000000131000,  -0.04000,
,,,-00.000000130000,  -0.06000,
,,,-00.000000129000,   0.00000,
,,,-00.000000128000,  -0.02000,
,,,-00.000000127000,  -0.04000,
,,,-00.000000126000,  -0.04000,
,,,-00.000000125000,  -0.02000,
,,,-00.000000124000,  -0.04000,
,,,-00.000000123000,  -0.02000,
,,,-00.000000122000,  -0.04000,
,,,-00.000000121000,  -0.02000,
,,,-00.000000120000,  -0.02000,
,,,-00.000000119000,  -0.06000,
,,,-00.000000118000,  -0.06000,
,,,-00.000000117000,  -0.04000,
,,,-00.000000116000,  -0.06000,
,,,-00.000000115000,  -0.04000,
,,,-00.000000114000,  -0.02000,
,,,-00.000000113000,   0.00000,
,,,-00.000000112000,  -0.04000,
,,,-00.000000111000,  -0.02000,
,,,-00.000000110000,  -0.02000,
,,,-00.000000109000,  -0.04000,
,,,-00.000000108000,  -0.02000,
,,,-00.000000107000,  -0.02000,
,,,-00.000000106000,  -0.02000,
,,,-00.000000105000,  -0.02000,
,,,-00.000000104000,  -0.02000,
,,,-00.000000103000,   0.00000,
,,,-00.000000102000,  -0.04000,
,,,-00.000000101000,  -0.06000,
,,,-00.000000100000,  -0.04000,
,,,-00.000000099000,  -0.06000,
,,,-00.000000098000,  -0.06000,
,,,-00.000000097000,  -0.02000,
,,,-00.000000096000,   0.00000,
,,,-00.000000095000,   0.00000,
,,,-00.000000094000,  -0.04000,
,,,-00.000000093000,  -0.02000,
,,,-00.000000092000,  -0.02000,
,,,-00.000000091000,  -0.04000,
,,,-00.000000090000,   0.00000,
,,,-00.000000089000,  -0.04000,
,,,-00.000000088000,   0.00000,
,,,-00.000000087000,  -0.02000,
,,,-00.000000086000,  -0.04000,
,,,-00.000000085000,  -0.04000,
,,,-00.000000084000,  -0.08000,
,,,-00.000000083000,  -0.04000,
,,,-00.000000082000,  -0.08000,
,,,-00.000000081000,  -0.04000,
,,,-00.000000080000,  -0.02000,
,,,-00.000000079000,  -0.02000,
,,,-00.000000078000,  -0.02000,
,,,-00.000000077000,  -0.04000,
,,,-00.000000076000,  -0.02000,
,,,-00.000000075000,  -0.04000,
,,,-00.000000074000,  -0.04000,
,,,-00.000000073000,  -0.04000,
,,,-00.000000072000,  -0.04000,
,,,-00.000000071000,  -0.06000,
,,,-00.000000070000,  -0.04000,
,,,-00.000000069000,  -0.04000,
,,,-00.000000068000,  -0.06000,
,,,-00.000000067000,  -0.04000,
,,,-00.000000066000,  -0.06000,
,,,-00.000000065000,  -0.06000,
,,,-00.000000064000,  -0.06000,
,,,-00.000000063000,  -0.02000,
,,,-00.000000062000,  -0.02000,
,,,-00.000000061000,  -0.06000,
,,,-00.000000060000,  -0.02000,
,,,-00.000000059000,  -0.04000,
,,,-00.000000058000,  -0.04000,
,,,-00.000000057000,  -0.02000,
,,,-00.000000056000,  -0.02000,
,,,-00.000000055000,   0.00000,
,,,-00.000000054000,  -0.02000,
,,,-00.000000053000,  -0.02000,
,,,-00.000000052000,  -0.04000,
,,,-00.000000051000,  -0.06000,
,,,-00.000000050000,  -0.04000,
,,,-00.000000049000,  -0.06000,
,,,-00.000000048000,  -0.02000,
,,,-00.000000047000,  -0.04000,
,,,-00.000000046000,  -0.02000,
,,,-00.000000045000,  -0.02000,
,,,-00.000000044000,  -0.02000,
,,,-00.000000043000,  -0.02000,
,,,-00.000000042000,  -0.04000,
,,,-00.000000041000,  -0.02000,
,,,-00.000000040000,  -0.02000,
,,,-00.000000039000,   0.00000,
,,,-00.000000038000,  -0.02000,
,,,-00.000000037000,  -0.02000,
,,,-00.000000036000,  -0.02000,
,,,-00.000000035000,  -0.04000,
,,,-00.000000034000,  -0.08000,
,,,-00.000000033000,  -0.06000,
,,,-00.000000032000,  -0.06000,
,,,-00.000000031000,  -0.04000,
,,,-00.000000030000,  -0.02000,
,,,-00.000000029000,  -0.04000,
,,,-00.000000028000,  -0.02000,
,,,-00.000000027000,  -0.04000,
,,,-00.000000026000,  -0.04000,
,,,-00.000000025000,  -0.02000,
,,,-00.000000024000,  -0.02000,
,,,-00.000000023000,  -0.02000,
,,,-00.000000022000,  -0.02000,
,,,-00.000000021000,  -0.04000,
,,,-00.000000020000,  -0.04000,
,,,-00.000000019000,  -0.04000,
,,,-00.000000018000,  -0.06000,
,,,-00.000000017000,  -0.06000,
,,,-00.000000016000,  -0.06000,
,,,-00.000000015000,   0.00000,
,,,-00.000000014000,  -0.04000,
,,,-00.000000013000,  -0.04000,
,,,-00.000000012000,  -0.02000,
,,,-00.000000011000,  -0.06000,
,,,-00.000000010000,  -0.04000,
,,,-00.000000009000,  -0.04000,
,,,-00.000000008000,  -0.02000,
,,,-00.000000007000,  -0.04000,
,,,-00.000000006000,  -0.04000,
,,,-00.000000005000,   0.00000,
,,,-00.000000004000,  -0.02000,
,,,-00.000000003000,   0.00000,
,,,-00.000000002000,  -0.02000,
,,,-00.000000001000,  -0.02000,
,,,-00.000000000000,   0.04000,
,,,00.000000001000,   0.12000,
,,,00.000000002000,   0.22000,
,,,00.000000003000,   0.32000,
,,,00.000000004000,   0.44000,
,,,00.000000005000,   0.60000,
,,,00.000000006000,   0.74000,
,,,00.000000007000,   0.84000,
,,,00.000000008000,   0.92000,
,,,00.000000009000,   0.98000,
,,,00.000000010000,   1.02000,
,,,00.000000011000,   1.00000,
,,,00.000000012000,   1.00000,
,,,00.000000013000,   0.96000,
,,,00.000000014000,   0.96000,
,,,00.000000015000,   0.96000,
,,,00.000000016000,   0.94000,
,,,00.000000017000,   0.94000,
,,,00.000000018000,   0.96000,
,,,00.000000019000,   0.96000,
,,,00.000000020000,   0.98000,
,,,00.000000021000,   0.94000,
,,,00.000000022000,   0.98000,
,,,00.000000023000,   0.94000,
,,,00.000000024000,   0.96000,
,,,00.000000025000,   0.96000,
,,,00.000000026000,   0.98000,
,,,00.000000027000,   0.98000,
,,,00.000000028000,   0.96000,
,,,00.000000029000,   0.96000,
,,,00.000000030000,   0.96000,
,,,00.000000031000,   0.96000,
,,,00.000000032000,   0.96000,
,,,00.000000033000,   0.96000,
,,,00.000000034000,   0.96000,
,,,00.000000035000,   0.96000,
,,,00.000000036000,   0.96000,
,,,00.000000037000,   0.96000,
,,,00.000000038000,   0.96000,
,,,00.000000039000,   0.96000,
,,,00.000000040000,   0.96000,
,,,00.000000041000,   0.96000,
,,,00.000000042000,   0.98000,
,,,00.000000043000,   0.98000,
,,,00.000000044000,   0.98000,
,,,00.000000045000,   0.96000,
,,,00.000000046000,   0.96000,
,,,00.000000047000,   0.96000,
,,,00.000000048000,   0.96000,
,,,00.000000049000,   0.96000,
,,,00.000000050000,   0.98000,
,,,00.000000051000,   0.98000,
,,,00.000000052000,   0.96000,
,,,00.000000053000,   0.96000,
,,,00.000000054000,   0.96000,
,,,00.000000055000,   0.96000,
,,,00.000000056000,   0.96000,
,,,00.000000057000,   0.96000,
,,,00.000000058000,   1.00000,
,,,00.000000059000,   0.96000,
,,,00.000000060000,   0.98000,
,,,00.000000061000,   0.98000,
,,,00.000000062000,   0.98000,
,,,00.000000063000,   0.96000,
,,,00.000000064000,   0.98000,
,,,00.000000065000,   0.96000,
,,,00.000000066000,   0.96000,
,,,00.000000067000,   0.98000,
,,,00.000000068000,   0.98000,
,,,00.000000069000,   0.98000,
,,,00.000000070000,   0.96000,
,,,00.000000071000,   0.98000,
,,,00.000000072000,   1.00000,
,,,00.000000073000,   0.98000,
,,,00.000000074000,   0.94000,
,,,00.000000075000,   1.00000,
,,,00.000000076000,   0.96000,
,,,00.000000077000,   0.98000,
,,,00.000000078000,   0.98000,
,,,00.000000079000,   0.98000,
,,,00.000000080000,   0.96000,
,,,00.000000081000,   0.94000,
,,,00.000000082000,   0.98000,
,,,00.000000083000,   0.98000,
,,,00.000000084000,   0.96000,
,,,00.000000085000,   0.96000,
,,,00.000000086000,   0.96000,
,,,00.000000087000,   0.98000,
,,,00.000000088000,   0.96000,
,,,00.000000089000,   0.98000,
,,,00.000000090000,   0.96000,
,,,00.000000091000,   0.98000,
,,,00.000000092000,   0.98000,
,,,00.000000093000,   0.98000,
,,,00.000000094000,   0.98000,
,,,00.000000095000,   0.96000,
,,,00.000000096000,   0.94000,
,,,00.000000097000,   0.94000,
,,,00.000000098000,   0.92000,
,,,00.000000099000,   0.90000,
,,,00.000000100000,   0.88000,
,,,00.000000101000,   0.76000,
,,,00.000000102000,   0.66000,
,,,00.000000103000,   0.54000,
,,,00.000000104000,   0.38000,
,,,00.000000105000,   0.22000,
,,,00.000000106000,   0.10000,
,,,00.000000107000,   0.02000,
,,,00.000000108000,  -0.02000,
,,,00.000000109000,  -0.06000,
,,,00.000000110000,  -0.04000,
,,,00.000000111000,  -0.06000,
,,,00.000000112000,  -0.04000,
,,,00.000000113000,  -0.02000,
,,,00.000000114000,   0.00000,
,,,00.000000115000,  -0.02000,
,,,00.000000116000,  -0.02000,
,,,00.000000117000,   0.00000,
